{	
    "profileJSON":{
        "name":"ConnectionTest123",
        "dataServerExternalType":"DB2LUW",
        "databaseName":"sample",
        "host":"9.181.24.134",
        "port":50005,
        "securityMechanism":"3",
        "user":"db2inst5",
        "password":"vm2dsmadmin",
        "creator":"admin",
        "JDBCProperties":"",
        "xtraProps":"",
        "comment":"",
        "URL":"jdbc:db2://9.181.24.134:50005/sample:retrieveMessagesFromServerOnGetMessage=true;securityMechanism=3;",
        "otsEventTablespace":null,
        "dataServerType":"DB2LUW"
    }
}
