{
    "exception": "",
    "db2license": "AESE",
    "isInstPureScale": "false",
    "databaseName": "REPODB",
    "dbUUID": "62d50c18-6ee7-4a7b-84dd-85e228df78e7",
    "edition": "AESE",
    "CF_NODE": "",
    "_PROFILE_INIT": "true",
    "dataServerType": "DB2LUW",
    "databaseVersion": "11.1.0",
    "URL": "jdbc:db2://9.111.214.161:65000/REPODB:retrieveMessagesFromServerOnGetMessage=true;securityMechanism=3;",
    "password": "************************************************************",
    "capability": "DSM_ENTERPRISE_LUW",
    "isHADR": "false",
    "DB2Instance": "db2inst1",
    ".dsrcprop.": "REPODB2_dsweb_1817255662258772",
    "host": "9.111.214.161",
    "dataServerExternalType": "DB2LUW",
    "databaseVersion_VRMF": "11.1.0.0",
    "lastUpdatedTimeStamp": "1497348701601",
    "TimeZoneDiff": "0",
    "disableDataCollection": "true",
    "creator": "admin",
    "isBigSql": "false",
    "HADR_Role": "STANDARD",
    "securityMechanism": "3",
    "isInstPartitionable": "false",
    "TimeZone": "0",
    "port": "65000",
    "OSType": "Linux",
    "name": "REPODB2",
    "user": "db2inst1"
}