{
	"data": [
		[{
			"timestamp": [1470294518862]
		}, {
			"db2license": "AESE",
			"monitorProfileId": "-1",
			"isInstPureScale": "false",
			"databaseName": "CONTEST1",
			"hostPortInstance": "9.30.166.155:50000 - db2inst1",
			"isDBUser": true,
			"monitoringOn": true,
			"dataServerType": "DB2LUW",
			"databaseVersion": "11.1.0",
			"capability": "DSM_ENTERPRISE_LUW",
			"isValidated": true,
			"DB2Instance": "db2inst1",
			"host": "9.30.166.155",
			"hostPort": "9.30.166.155:50000",
			"isBigSql": "false",
			"isCredentialsValid": "false",
			"isSupported": true,
			"monitoringState": "credentialsInvalid",
			"dbBlackout": false,
			"isInstPartitionable": "false",
			"port": "50000",
			"name": "conn1",
			"location": null,
			"isDBOwner": true,
			"user": "db2inst11"
		}, {
			"db2license": "AESE",
			"monitorProfileId": "-1",
			"isInstPureScale": "false",
			"databaseName": "CONTEST2",
			"hostPortInstance": "9.30.166.155:50000 - db2inst1",
			"isBigSql": "false",
			"isDBUser": true,
			"isCredentialsValid": "true",
			"isSupported": true,
			"monitoringOn": true,
			"dataServerType": "DB2LUW",
			"databaseVersion": "11.1.0",
			"dbBlackout": false,
			"capability": "DSM_ENTERPRISE_LUW",
			"isInstPartitionable": "false",
			"isValidated": true,
			"DB2Instance": "db2inst1",
			"port": "50000",
			"name": "conn2",
			"host": "9.30.166.155",
			"location": null,
			"hostPort": "9.30.166.155:50000",
			"isDBOwner": true,
			"user": "db2inst1"
		}, {
			"db2license": "AESE",
			"monitorProfileId": "-1",
			"isInstPureScale": "false",
			"databaseName": "CONTEST3",
			"hostPortInstance": "9.30.166.155:50000 - db2inst1",
			"isDBUser": true,
			"monitoringOn": true,
			"dataServerType": "DB2LUW",
			"databaseVersion": "11.1.0",
			"capability": "DSM_ENTERPRISE_LUW",
			"isValidated": true,
			"DB2Instance": "db2inst1",
			"host": "9.30.166.155",
			"hostPort": "9.30.166.155:50000",
			"isBigSql": "false",
			"isCredentialsValid": "true",
			"isSupported": true,
			"monitoringState": "dbBlackout",
			"dbBlackout": true,
			"isInstPartitionable": "false",
			"port": "50000",
			"name": "conn3",
			"location": null,
			"isDBOwner": true,
			"user": "db2inst1"
		}, {
			"db2license": "AESE",
			"monitorProfileId": "-1",
			"isInstPureScale": "false",
			"databaseName": "CONTEST4",
			"hostPortInstance": "9.30.166.155:50000 - db2inst1",
			"isBigSql": "false",
			"isDBUser": true,
			"isCredentialsValid": "true",
			"isSupported": true,
			"monitoringOn": true,
			"dataServerType": "DB2LUW",
			"databaseVersion": "11.1.0",
			"dbBlackout": false,
			"capability": "DSM_ENTERPRISE_LUW",
			"isInstPartitionable": "false",
			"isValidated": true,
			"DB2Instance": "db2inst1",
			"port": "50000",
			"name": "conn4",
			"host": "9.30.166.155",
			"location": null,
			"hostPort": "9.30.166.155:50000",
			"isDBOwner": true,
			"user": "db2inst1"
		}, {
			"db2license": "AESE",
			"monitorProfileId": "-1",
			"isInstPureScale": "false",
			"databaseName": "CONTEST1",
			"hostPortInstance": "9.30.166.155:50000 - db2inst1",
			"isBigSql": "false",
			"isDBUser": true,
			"isCredentialsValid": "true",
			"isSupported": true,
			"monitoringOn": true,
			"dataServerType": "DB2LUW",
			"databaseVersion": "11.1.0",
			"dbBlackout": false,
			"capability": "DSM_ENTERPRISE_LUW",
			"isInstPartitionable": "false",
			"isValidated": true,
			"DB2Instance": "db2inst1",
			"port": "50000",
			"name": "conn5",
			"host": "9.30.166.155",
			"location": null,
			"hostPort": "9.30.166.155:50000",
			"isDBOwner": true,
			"user": "db2inst1"
		}, {
			"db2license": null,
			"isInstPureScale": "false",
			"databaseName": "CONTESTE",
			"hostPortInstance": "9.30.166.133:50000",
			"isBigSql": "false",
			"isDBUser": true,
			"isCredentialsValid": null,
			"isSupported": false,
			"monitoringOn": false,
			"dataServerType": "DB2LUW",
			"databaseVersion": null,
			"monitoringState": "validationPending",
			"dbBlackout": false,
			"capability": null,
			"isInstPartitionable": "false",
			"isValidated": false,
			"DB2Instance": null,
			"port": "50000",
			"name": "conn6",
			"host": "9.30.166.133",
			"location": null,
			"hostPort": "9.30.166.133:50000",
			"isDBOwner": true,
			"user": "db2inst1"
		}, {
			"db2license": "AESE",
			"monitorProfileId": "-1",
			"isInstPureScale": "false",
			"databaseName": "CONTEST3",
			"hostPortInstance": "9.30.166.155:50000 - db2inst1",
			"isBigSql": "false",
			"isDBUser": true,
			"isCredentialsValid": "true",
			"isSupported": true,
			"monitoringOn": true,
			"dataServerType": "DB2LUW",
			"databaseVersion": "11.1.0",
			"dbBlackout": false,
			"capability": "DSM_ENTERPRISE_LUW",
			"isInstPartitionable": "false",
			"isValidated": true,
			"DB2Instance": "db2inst1",
			"port": "50000",
			"name": "conn7",
			"host": "9.30.166.155",
			"location": null,
			"hostPort": "9.30.166.155:50000",
			"isDBOwner": true,
			"user": "db2inst1"
		}]
	]
}