4028628,401604,2011-08-25 00:00:00.0,50110,0,3730,1.96,4.00,3.76
4028629,401604,2011-08-25 00:00:00.0,51110,0,259,34.47,70.00,65.80
4028630,401604,2011-08-25 00:00:00.0,52110,0,406,18.35,38.00,36.86
4028631,401604,2011-08-25 00:00:00.0,53110,0,215,22.20,39.99,38.79
4028632,401604,2011-08-25 00:00:00.0,54110,0,282,22.36,52.99,51.40
4028633,401604,2011-08-25 00:00:00.0,55110,0,1454,3.15,8.00,7.76
4028634,401604,2011-08-25 00:00:00.0,56110,0,216,8.53,18.00,17.64
4028635,401604,2011-08-25 00:00:00.0,42110,0,170,100.91,160.00,150.40
4028636,401604,2011-08-25 00:00:00.0,43110,0,85,126.51,190.00,178.60
4028637,401604,2011-08-25 00:00:00.0,44110,0,140,227.69,346.66,325.86
4028638,401604,2011-08-25 00:00:00.0,26110,10228,306,213.33,370.86,333.77
4028639,401604,2011-08-25 00:00:00.0,18110,0,462,86.00,146.83,138.02
4028640,401604,2011-08-25 00:00:00.0,19110,0,290,150.00,265.14,249.23
4028641,401604,2011-08-25 00:00:00.0,6110,0,445,79.56,129.72,121.94
4028642,401604,2011-08-25 00:00:00.0,30110,0,504,6.75,14.77,14.33
4028643,401604,2011-08-25 00:00:00.0,83110,0,131,56.23,96.44,90.65
4028644,401604,2011-08-25 00:00:00.0,85110,0,101,176.47,359.60,338.02
4028645,401604,2011-08-25 00:00:00.0,66110,0,62,45.00,98.01,93.11
4028646,401604,2011-08-25 00:00:00.0,67110,0,23,116.19,294.38,282.60
4028647,401604,2011-08-25 00:00:00.0,80110,0,104,94.12,182.67,171.71
4028648,401604,2011-08-25 00:00:00.0,68250,0,43,26.15,61.84,59.98
4028649,401604,2011-08-25 00:00:00.0,68190,0,30,26.15,61.84,60.60
4028650,401604,2011-08-25 00:00:00.0,68200,0,49,26.15,61.84,59.98
8242469,817186,2010-02-18 00:00:00.0,132110,0,85,39.35,80.00,80.00
8242470,803149,2013-05-18 00:00:00.0,154120,0,66,68.86,126.50,126.50
8242471,815183,2010-02-24 00:00:00.0,124140,0,241,17.41,26.00,26.00
8242472,815010,2010-11-23 00:00:00.0,144110,0,8,102.42,188.00,188.00
8242473,812522,2011-05-16 00:00:00.0,128140,0,59,39.45,65.00,65.00
8242474,804811,2013-02-15 00:00:00.0,124160,0,315,18.02,26.80,26.80
8242475,815571,2012-09-15 00:00:00.0,147140,0,92,25.55,37.25,37.25
8242476,813936,2013-06-15 00:00:00.0,126150,0,74,31.43,48.25,48.25
8242477,830907,2011-04-22 00:00:00.0,148120,0,277,24.21,40.50,40.50
8242478,805924,2011-06-13 00:00:00.0,128210,0,15,35.04,62.65,62.65
8242479,808793,2010-06-21 00:00:00.0,127130,0,309,11.71,20.15,20.15
8242480,813539,2011-03-24 00:00:00.0,140110,0,8,238.10,365.00,365.00
8242481,806049,2011-09-28 00:00:00.0,135130,0,13,74.10,160.00,160.00
8242482,822201,2011-05-16 00:00:00.0,140110,0,151,236.95,365.00,250.00
8242483,811333,2012-06-26 00:00:00.0,152110,0,14,235.99,358.00,358.00
8242484,825208,2012-08-21 00:00:00.0,151110,0,10,90.24,145.00,145.00
8242485,815257,2010-07-19 00:00:00.0,124140,0,227,17.42,26.00,26.00
8242486,810405,2010-05-25 00:00:00.0,133110,0,25,50.52,110.00,110.00
8242487,822469,2011-10-21 00:00:00.0,144150,0,6,105.52,200.00,200.00
8242488,808660,2012-07-14 00:00:00.0,147160,0,201,22.51,32.85,32.85
8242489,808891,2010-09-21 00:00:00.0,147160,0,275,20.35,30.40,30.40
8242490,827270,2013-06-14 00:00:00.0,124180,0,524,20.08,30.50,30.50
8242491,832610,2012-08-21 00:00:00.0,148110,0,183,24.27,40.50,40.50
8242492,815191,2011-07-18 00:00:00.0,133110,0,16,50.53,110.00,110.00
8242493,824007,2012-09-18 00:00:00.0,135110,0,21,78.07,167.50,167.50
8242494,808471,2012-10-23 00:00:00.0,128140,0,16,39.98,67.60,67.60
8242495,813250,2012-06-23 00:00:00.0,147110,0,399,20.59,30.70,30.70
8242496,813082,2012-11-21 00:00:00.0,128200,0,177,40.91,72.80,72.80
8242497,808890,2010-03-17 00:00:00.0,147110,0,54,20.14,30.70,30.70
8242498,804581,2013-06-18 00:00:00.0,124160,0,1022,17.90,26.80,26.80
8242499,830660,2013-03-19 00:00:00.0,130130,0,39,94.98,179.60,179.60
8242500,822668,2013-04-23 00:00:00.0,149150,0,63,33.48,62.65,62.65
8242501,820119,2012-12-18 00:00:00.0,128130,0,117,36.30,67.50,67.50
8244140,801000,2012-09-13 00:00:00.0,129130,0,14,120.64,229.60,229.60
8244141,809389,2012-02-20 00:00:00.0,135110,0,6,74.81,160.00,160.00
8244142,811541,2013-05-21 00:00:00.0,128210,0,51,33.55,62.65,62.65
8244143,825587,2012-02-13 00:00:00.0,154110,0,21,67.08,120.30,120.30
8244144,814496,2011-07-15 00:00:00.0,125150,0,57,42.78,73.00,73.00
6032592,601724,2011-07-26 00:00:00.0,64110,0,50,20.00,41.61,40.78
6032593,601724,2011-07-26 00:00:00.0,66110,0,31,45.00,98.01,96.05
6032604,601725,2011-07-18 00:00:00.0,17110,0,278,60.00,90.09,84.68
6032605,601725,2011-07-18 00:00:00.0,18110,0,202,86.00,146.83,138.02
6032606,601725,2011-07-18 00:00:00.0,82110,0,282,20.00,32.72,32.07
6032607,601725,2011-07-18 00:00:00.0,63110,0,53,30.00,48.88,47.90
6032608,601725,2011-07-18 00:00:00.0,22110,0,167,8.14,17.65,17.30
6032609,601725,2011-07-18 00:00:00.0,9110,0,912,5.11,13.22,12.82
6032610,601725,2011-07-18 00:00:00.0,30110,0,237,6.75,14.77,14.47
6032611,601725,2011-07-18 00:00:00.0,68120,0,15,26.15,61.84,61.84
6032612,601725,2011-07-18 00:00:00.0,64110,0,44,20.00,41.61,41.61
6032613,601725,2011-07-18 00:00:00.0,6110,0,237,79.56,129.72,121.94
6032614,601725,2011-07-18 00:00:00.0,40110,0,363,17.97,27.81,27.25
6032615,601725,2011-07-18 00:00:00.0,5110,0,367,34.97,54.93,53.28
6032617,601725,2011-07-18 00:00:00.0,36110,0,208,18.04,34.90,33.85
6032618,601725,2011-07-18 00:00:00.0,37110,0,17,28.75,52.15,52.15
6032619,601725,2011-07-18 00:00:00.0,38110,0,137,20.00,31.55,30.92
6032620,601725,2011-07-18 00:00:00.0,28110,0,392,16.00,33.59,32.92
6032621,601725,2011-08-03 00:00:00.0,11110,0,239,250.00,370.13,347.92
6032622,601725,2011-07-18 00:00:00.0,14110,0,59,426.00,677.03,636.41
6032623,601725,2011-07-18 00:00:00.0,2110,0,455,6.62,12.53,12.28
6032624,601725,2011-07-18 00:00:00.0,3110,0,387,15.93,23.80,23.32
6032625,601725,2011-07-18 00:00:00.0,21110,50108,478,15.00,40.65,24.39
6032626,601725,2011-07-18 00:00:00.0,77110,0,52,45.00,92.29,88.60
6032627,601725,2011-07-18 00:00:00.0,83110,0,54,56.23,96.44,92.58
6032638,601726,2011-07-21 00:00:00.0,74110,0,300,11.43,16.64,16.31
6032639,601726,2011-07-21 00:00:00.0,79110,0,68,92.58,134.11,126.06
6032640,601726,2011-07-21 00:00:00.0,81110,0,56,40.00,85.56,82.14
6032641,601726,2011-07-21 00:00:00.0,12110,0,28,396.00,650.89,611.84
6032642,601726,2011-07-21 00:00:00.0,13110,0,140,392.57,582.42,547.47
6032643,601726,2011-07-21 00:00:00.0,4110,0,711,0.85,3.66,3.59
6035723,601865,2011-08-16 00:00:00.0,96110,0,88,9.00,23.00,23.00
6035724,601865,2011-08-16 00:00:00.0,16110,0,1255,1.00,2.06,2.00
6035725,601865,2011-08-16 00:00:00.0,50110,0,2082,1.96,4.00,3.80
6035736,601866,2011-08-16 00:00:00.0,8110,0,140,75.00,151.77,142.66
6035737,601866,2011-08-16 00:00:00.0,33110,0,124,18.00,29.44,28.85
6035738,601866,2011-08-16 00:00:00.0,34110,0,87,28.12,51.24,50.22
6035739,601866,2011-08-16 00:00:00.0,70240,0,50,58.88,122.70,115.34
8150229,833673,2010-06-24 00:00:00.0,144170,0,32,99.02,180.00,180.00
8150230,825071,2011-01-24 00:00:00.0,154130,0,33,67.04,120.30,120.30
8150231,824155,2012-04-24 00:00:00.0,148130,0,55,22.91,40.50,40.50
8150232,813485,2012-09-25 00:00:00.0,136140,0,203,28.28,47.30,47.30
8150233,834897,2011-07-22 00:00:00.0,129150,0,12,140.12,240.00,240.00
8150234,819114,2012-07-20 00:00:00.0,129180,0,5,137.86,249.00,249.00
8150235,805370,2013-02-12 00:00:00.0,130110,0,6,84.88,167.20,167.20
8150236,809093,2012-07-24 00:00:00.0,135120,0,3,96.00,172.80,172.80
8150237,827714,2011-11-21 00:00:00.0,135120,0,74,102.40,160.00,160.00
8150238,824199,2012-12-25 00:00:00.0,122140,0,133,36.30,67.50,67.50
8150239,813516,2010-08-16 00:00:00.0,148110,0,150,24.01,40.50,40.50
8150240,813943,2010-05-24 00:00:00.0,145160,0,10,133.04,240.00,240.00
8150241,805050,2013-07-19 00:00:00.0,148120,0,281,24.96,42.75,42.75
8150242,820733,2013-02-19 00:00:00.0,146140,0,34,68.88,118.40,118.40
8150243,822683,2012-03-15 00:00:00.0,129150,0,14,139.86,240.00,240.00
8150244,825253,2010-08-18 00:00:00.0,126110,0,102,25.35,42.25,42.25
8150245,806131,2012-04-24 00:00:00.0,126140,0,34,28.45,43.85,43.85
8150246,813929,2013-03-19 00:00:00.0,128130,0,163,36.02,67.50,67.50
8150247,827354,2012-01-13 00:00:00.0,147170,0,79,20.99,30.40,30.40
8150248,819285,2013-02-09 00:00:00.0,135120,0,27,79.00,169.00,169.00
8150249,802244,2010-12-21 00:00:00.0,145170,0,45,144.16,260.00,260.00
8150250,815507,2011-05-16 00:00:00.0,145170,0,19,150.20,270.20,270.20
8150251,805024,2010-07-26 00:00:00.0,142110,0,50,88.36,154.00,154.00
8150252,802650,2013-07-13 00:00:00.0,136130,0,143,28.26,47.30,47.30
8150253,824332,2012-08-18 00:00:00.0,153110,0,38,153.01,235.00,235.00
8150254,801016,2010-10-25 00:00:00.0,123160,0,26,24.67,38.30,38.30
8150255,830868,2012-04-21 00:00:00.0,130110,0,2,87.18,167.20,167.20
8150256,823882,2013-02-20 00:00:00.0,146130,0,11,63.08,109.50,109.50
8150257,803013,2011-10-17 00:00:00.0,122130,0,27,43.91,75.00,75.00
8150258,804246,2013-02-12 00:00:00.0,130110,0,53,84.88,167.20,167.20
8150259,817183,2010-06-17 00:00:00.0,124110,0,692,17.39,26.00,26.00
8150260,831793,2010-08-23 00:00:00.0,124130,0,180,18.01,26.80,26.80
8150261,824254,2012-05-23 00:00:00.0,145130,0,2,151.84,260.00,260.00
8150262,820937,2013-04-16 00:00:00.0,147180,0,103,22.23,32.85,32.85
8150263,812671,2013-01-12 00:00:00.0,129130,0,21,120.34,229.60,229.60
8150264,823294,2013-01-15 00:00:00.0,125160,0,108,41.76,73.00,73.00
8150265,831141,2011-11-17 00:00:00.0,129130,0,19,115.44,220.00,220.00
8150266,812747,2011-12-28 00:00:00.0,154110,0,45,68.26,120.30,120.30
1012277,100722,2010-07-20 00:00:00.0,98110,0,189,2.83,6.00,6.00
1012278,100722,2010-07-20 00:00:00.0,29110,0,174,41.18,73.50,68.36
1012279,100722,2010-07-20 00:00:00.0,17110,0,429,60.00,90.09,83.78
1012280,100722,2010-07-20 00:00:00.0,89110,0,1272,2.33,7.00,6.72
1012281,100722,2010-07-20 00:00:00.0,91110,0,816,1.95,5.00,4.85
1012282,100722,2010-07-20 00:00:00.0,78110,0,239,71.19,105.29,97.92
1012283,100722,2010-07-20 00:00:00.0,99110,0,250,1.92,5.23,5.23
1012284,100722,2010-07-20 00:00:00.0,40110,10211,917,13.97,27.81,22.25
1012285,100722,2010-07-20 00:00:00.0,1110,0,2539,2.90,6.59,6.13
1012286,100722,2010-07-20 00:00:00.0,86110,0,2278,1.86,6.00,5.64
1012287,100722,2010-07-20 00:00:00.0,90110,0,4615,2.42,7.00,6.51
1012288,100722,2010-07-20 00:00:00.0,92110,0,1213,1.96,5.00,4.80
1012289,100722,2010-07-20 00:00:00.0,10110,0,741,10.00,19.29,18.52
1012290,100722,2010-07-20 00:00:00.0,34110,0,139,28.12,51.24,49.19
1012291,100722,2010-07-20 00:00:00.0,95110,0,1206,2.76,6.00,5.76
1012292,100722,2010-07-20 00:00:00.0,39110,0,97,40.63,67.73,62.99
1012293,100722,2010-07-20 00:00:00.0,24110,10212,372,52.50,76.86,69.17
1012294,100722,2010-07-20 00:00:00.0,19110,0,212,150.00,265.14,246.58
1012295,100722,2010-07-20 00:00:00.0,11110,0,189,250.00,370.13,344.22
1012296,100722,2010-07-20 00:00:00.0,21110,0,260,19.17,40.65,39.02
1012297,100722,2010-07-20 00:00:00.0,14110,0,90,426.00,677.03,629.64
1012298,100722,2010-08-03 00:00:00.0,75110,0,240,80.00,119.69,111.31
1012299,100722,2010-07-20 00:00:00.0,83110,0,124,56.23,96.44,89.69
1012300,100722,2010-07-20 00:00:00.0,85110,0,97,176.47,359.60,334.43
1012301,100722,2010-07-20 00:00:00.0,67110,0,30,116.19,294.38,276.72
1012302,100722,2010-07-20 00:00:00.0,96110,0,325,9.10,23.00,22.31
1012313,100723,2010-07-30 00:00:00.0,101110,0,77,305.54,630.25,586.13
1012314,100723,2010-07-30 00:00:00.0,109110,0,602,34.90,76.86,71.48
1012315,100723,2010-07-30 00:00:00.0,110110,0,160,41.20,98.75,91.84
1012316,100723,2010-07-30 00:00:00.0,111110,0,176,91.80,180.63,167.99
1012317,100723,2010-07-30 00:00:00.0,106110,0,38,536.09,1161.46,1080.16
1012318,100723,2010-07-30 00:00:00.0,107110,0,38,660.65,1359.72,1264.54
1012319,100723,2010-07-30 00:00:00.0,100110,0,479,2.76,6.00,6.00
1012320,100723,2010-07-30 00:00:00.0,113110,0,634,6.00,12.81,12.30
1012321,100723,2010-07-30 00:00:00.0,114110,0,62,79.70,219.30,203.95
1012322,100723,2010-07-30 00:00:00.0,2110,0,591,6.62,12.53,12.03
1012323,100723,2010-07-30 00:00:00.0,93110,0,1499,1.79,5.00,4.80
1012336,100724,2010-07-22 00:00:00.0,31110,60402,79,7.50,16.29,0.00
8097791,816118,2012-02-13 00:00:00.0,128150,0,96,39.51,65.00,65.00
8097792,826190,2012-06-19 00:00:00.0,129110,0,19,120.94,229.60,229.60
8097793,803429,2010-09-20 00:00:00.0,147110,0,45,20.28,30.70,30.70
8097794,816937,2013-05-10 00:00:00.0,123140,0,67,24.67,38.30,38.30
8097795,822120,2013-07-12 00:00:00.0,124160,0,457,17.96,26.80,26.80
8097796,827818,2012-08-21 00:00:00.0,124190,0,126,28.41,43.85,43.85
8097797,804067,2012-01-23 00:00:00.0,145170,0,33,150.18,270.20,270.20
8097798,828374,2012-05-12 00:00:00.0,129180,0,22,137.86,249.00,249.00
8097799,828088,2012-04-25 00:00:00.0,128210,0,54,34.39,62.65,62.65
8097800,821837,2012-02-13 00:00:00.0,147160,0,250,20.76,30.40,30.40
8097801,828809,2011-08-22 00:00:00.0,144180,0,6,103.60,188.00,188.00
8097802,828441,2012-05-11 00:00:00.0,145170,0,1,149.58,270.20,270.20
8097803,812478,2012-12-14 00:00:00.0,126150,0,43,31.37,48.25,48.25
8097804,831872,2012-01-23 00:00:00.0,143110,0,104,30.73,50.30,50.30
8097805,814602,2011-06-20 00:00:00.0,144150,0,24,105.88,200.00,200.00
8097806,816064,2013-04-13 00:00:00.0,129130,0,12,121.00,229.60,229.60
8097807,828440,2012-11-17 00:00:00.0,144180,0,10,110.34,200.00,200.00
8097808,820022,2013-01-15 00:00:00.0,152110,0,2,232.90,358.00,358.00
8097809,813896,2010-02-16 00:00:00.0,123160,0,77,23.90,37.25,37.25
8097810,817759,2011-02-21 00:00:00.0,129110,0,24,115.84,220.00,220.00
8097811,803102,2013-05-16 00:00:00.0,147150,0,29,23.43,36.90,36.90
8097812,806088,2011-08-11 00:00:00.0,125110,0,106,43.02,73.00,73.00
8097813,805170,2010-06-24 00:00:00.0,132130,0,10,39.19,80.00,80.00
8097814,812548,2013-02-12 00:00:00.0,127110,0,125,12.51,21.25,21.25
8097815,804193,2013-06-25 00:00:00.0,147190,0,118,21.65,33.30,33.30
8097816,822767,2011-09-19 00:00:00.0,147110,0,81,20.85,30.70,30.70
8097817,815326,2011-01-25 00:00:00.0,126140,0,164,28.48,43.85,43.85
8097818,816486,2012-09-22 00:00:00.0,128200,0,34,41.09,72.80,72.80
8097819,832379,2010-10-19 00:00:00.0,135110,0,42,75.02,160.00,160.00
8097820,821033,2010-08-23 00:00:00.0,126140,0,70,27.90,43.85,43.85
8097821,810842,2013-03-19 00:00:00.0,127130,0,101,12.42,21.25,21.25
8097822,813317,2010-02-23 00:00:00.0,127110,0,380,11.71,20.15,20.15
8097823,811159,2012-08-14 00:00:00.0,151110,0,9,90.24,145.00,145.00
8097824,820899,2012-09-14 00:00:00.0,154120,0,13,69.06,126.50,126.50
8097825,803853,2010-01-21 00:00:00.0,127110,0,394,11.94,20.15,20.15
8097826,829660,2011-11-24 00:00:00.0,127130,0,475,12.13,20.15,20.15
8097827,814451,2011-01-17 00:00:00.0,144180,0,58,103.30,188.00,188.00
8097828,810367,2013-06-15 00:00:00.0,129140,0,7,120.24,229.60,229.60
4028651,401604,2011-08-25 00:00:00.0,68240,0,44,26.15,61.84,59.98
4028652,401604,2011-08-25 00:00:00.0,68220,0,52,26.15,61.84,59.37
4028653,401604,2011-08-25 00:00:00.0,69120,0,21,49.69,110.00,106.70
4028654,401604,2011-08-25 00:00:00.0,71110,0,27,41.12,95.62,93.71
4028655,401604,2011-08-25 00:00:00.0,74110,0,556,11.43,16.64,16.14
4028656,401604,2011-08-25 00:00:00.0,45110,0,74,370.35,574.98,540.48
4028657,401604,2011-08-25 00:00:00.0,46110,0,447,52.54,74.00,69.56
4028658,401604,2011-08-25 00:00:00.0,47110,0,267,43.77,65.00,61.10
4028659,401604,2011-08-25 00:00:00.0,48110,0,377,53.93,110.00,103.40
4028660,401604,2011-08-25 00:00:00.0,49110,0,149,15.71,33.00,32.34
4028661,401604,2011-09-15 00:00:00.0,57110,0,346,38.97,80.00,75.20
4028662,401604,2011-08-25 00:00:00.0,58110,0,254,56.88,79.98,75.18
4028663,401604,2011-08-25 00:00:00.0,59110,0,173,38.58,59.99,58.19
4028664,401604,2011-08-25 00:00:00.0,60110,0,520,9.89,20.00,19.40
4028665,401604,2011-08-25 00:00:00.0,61110,0,923,19.52,40.00,38.40
4028666,401604,2011-08-25 00:00:00.0,62110,0,661,46.52,80.00,75.20
4028677,401605,2011-08-12 00:00:00.0,46110,0,329,52.54,74.00,69.56
4028678,401605,2011-08-12 00:00:00.0,47110,0,197,43.77,65.00,61.10
4028679,401605,2011-08-12 00:00:00.0,48110,0,278,53.93,110.00,103.40
4028690,401606,2011-08-17 00:00:00.0,56110,0,163,8.53,18.00,17.64
4028691,401606,2011-08-17 00:00:00.0,42110,0,119,100.91,160.00,150.40
4028692,401606,2011-08-17 00:00:00.0,43110,0,59,126.51,190.00,178.60
4028693,401606,2011-08-17 00:00:00.0,44110,0,98,227.69,346.66,325.86
4028694,401606,2011-08-17 00:00:00.0,45110,0,52,370.35,574.98,540.48
4028705,401607,2011-08-15 00:00:00.0,49110,0,110,15.71,33.00,32.34
4028706,401607,2011-08-15 00:00:00.0,57110,0,234,38.97,80.00,75.20
4028717,401608,2011-08-29 00:00:00.0,35110,0,312,17.78,26.54,26.01
4028718,401608,2011-08-15 00:00:00.0,37110,0,55,28.75,52.15,51.11
4028719,401608,2011-08-15 00:00:00.0,39110,0,136,40.63,67.73,63.67
4028720,401608,2011-08-15 00:00:00.0,40110,0,1048,17.97,27.81,26.70
4028721,401608,2011-08-15 00:00:00.0,24110,0,772,52.50,76.86,72.25
4028732,401609,2011-08-23 00:00:00.0,8110,0,333,75.00,151.77,142.66
4028733,401609,2011-08-23 00:00:00.0,77110,0,147,45.00,92.29,86.75
4032342,401802,2011-10-25 00:00:00.0,30110,0,488,6.75,14.77,14.47
4032343,401802,2011-10-25 00:00:00.0,68230,0,31,26.15,61.84,60.60
4032344,401802,2011-10-25 00:00:00.0,68200,0,54,26.15,61.84,59.37
4032345,401802,2011-10-25 00:00:00.0,69120,0,23,49.69,110.00,106.70
4032346,401802,2011-10-25 00:00:00.0,63140,0,140,30.00,48.88,47.41
8244145,825713,2012-05-23 00:00:00.0,147160,0,168,20.82,30.40,30.40
8244146,801883,2013-04-16 00:00:00.0,127130,0,69,12.36,21.25,21.25
8244147,812479,2013-03-19 00:00:00.0,125150,0,102,41.76,73.00,73.00
8244148,810708,2010-11-22 00:00:00.0,147160,0,46,20.43,30.40,30.40
8244149,830018,2013-01-11 00:00:00.0,151110,0,72,90.28,145.00,145.00
8244150,805470,2011-01-14 00:00:00.0,125110,0,133,40.62,70.00,70.00
8244151,816810,2012-06-15 00:00:00.0,129150,0,12,140.08,240.00,240.00
8244152,824387,2011-02-11 00:00:00.0,147110,0,333,20.56,30.70,30.70
8244153,827932,2010-01-19 00:00:00.0,143120,0,17,29.06,48.60,48.60
8244154,826933,2010-01-19 00:00:00.0,147130,0,113,20.44,30.70,30.70
8244155,831010,2013-04-16 00:00:00.0,129180,0,30,138.36,249.00,249.00
8244156,833843,2010-07-23 00:00:00.0,133110,0,76,50.17,110.00,110.00
8244157,804278,2013-06-22 00:00:00.0,132140,0,223,41.25,84.00,84.00
8244158,816045,2012-09-25 00:00:00.0,147170,0,98,22.10,32.85,32.85
8244159,834119,2012-04-24 00:00:00.0,132170,0,81,40.63,85.00,85.00
8244160,822433,2011-12-19 00:00:00.0,148130,0,18,22.93,40.50,40.50
8244161,803900,2010-12-20 00:00:00.0,124120,0,99,18.39,26.80,26.80
8244162,822799,2013-01-18 00:00:00.0,131120,0,99,18.79,40.70,40.70
8244163,808347,2011-07-26 00:00:00.0,131110,0,144,17.64,38.20,38.20
8244164,806118,2012-01-12 00:00:00.0,126130,0,271,28.75,43.85,43.85
8244165,824798,2012-12-22 00:00:00.0,129130,0,6,120.92,229.60,229.60
8244166,832117,2013-02-19 00:00:00.0,148120,0,46,25.07,42.75,42.75
8244167,813596,2010-05-25 00:00:00.0,124190,0,73,26.77,42.25,42.25
8244168,802170,2011-01-24 00:00:00.0,123160,0,351,25.23,38.30,38.30
8244169,833565,2011-03-22 00:00:00.0,128140,0,33,39.35,65.00,65.00
8244170,800066,2011-05-16 00:00:00.0,125140,0,83,42.56,73.00,73.00
8244171,818340,2010-04-19 00:00:00.0,133110,0,40,50.36,110.00,110.00
8244172,801661,2011-03-21 00:00:00.0,145130,0,25,151.44,260.00,260.00
8244173,824330,2010-09-21 00:00:00.0,147130,0,200,20.28,30.70,30.70
8244174,812487,2011-03-18 00:00:00.0,127130,0,446,11.99,20.15,20.15
8244175,822396,2012-04-21 00:00:00.0,127130,0,343,12.04,20.15,20.15
8244176,814002,2010-09-14 00:00:00.0,147180,0,76,20.63,30.40,30.40
8244177,810513,2012-09-21 00:00:00.0,147130,0,29,21.96,33.15,33.15
8244178,834427,2012-11-09 00:00:00.0,127130,0,157,12.49,21.25,21.25
8244179,801753,2011-06-06 00:00:00.0,145170,0,1,150.20,270.20,270.20
8244180,831753,2011-12-26 00:00:00.0,144200,0,15,95.48,188.00,188.00
8244181,831138,2013-07-23 00:00:00.0,151130,0,16,223.41,358.00,358.00
8244182,817150,2010-11-18 00:00:00.0,124130,0,263,18.13,26.80,26.80
6035740,601866,2011-08-16 00:00:00.0,73110,0,1846,8.56,12.78,12.14
6035741,601866,2011-08-16 00:00:00.0,38110,0,144,20.00,31.55,30.92
6035742,601866,2011-08-16 00:00:00.0,17110,0,374,60.00,90.09,84.68
6035753,601867,2011-08-19 00:00:00.0,51110,0,145,34.47,70.00,65.80
6035754,601867,2011-08-19 00:00:00.0,52110,0,227,18.35,38.00,36.86
6035755,601867,2011-08-19 00:00:00.0,6110,0,255,79.56,129.72,121.94
6035756,601867,2011-08-19 00:00:00.0,30110,0,271,6.75,14.77,14.47
6035757,601867,2011-09-08 00:00:00.0,26110,10228,185,213.33,370.86,333.77
6035758,601867,2011-08-19 00:00:00.0,18110,0,254,86.00,146.83,138.02
6035759,601867,2011-08-19 00:00:00.0,68220,0,30,26.15,61.84,60.60
6035760,601867,2011-08-19 00:00:00.0,53110,0,120,22.20,39.99,38.79
6035761,601867,2011-08-19 00:00:00.0,54110,0,157,22.36,52.99,51.40
6035772,601868,2011-08-12 00:00:00.0,68110,0,21,26.15,61.84,61.84
6035773,601868,2011-08-12 00:00:00.0,72110,0,9,72.50,148.30,148.30
6035774,601868,2011-08-12 00:00:00.0,81110,0,53,40.00,85.56,82.14
6035775,601868,2011-08-12 00:00:00.0,23110,0,238,65.25,104.48,98.21
6035776,601868,2011-08-12 00:00:00.0,43110,0,44,126.51,190.00,178.60
6035777,601868,2011-08-12 00:00:00.0,44110,0,73,227.69,346.66,325.86
6035778,601868,2011-08-12 00:00:00.0,45110,0,38,370.35,574.98,540.48
6035779,601868,2011-08-12 00:00:00.0,46110,0,241,52.54,74.00,69.56
6035780,601868,2011-08-12 00:00:00.0,47110,0,144,43.77,65.00,61.10
6035781,601868,2011-08-12 00:00:00.0,48110,0,203,53.93,110.00,103.40
6035782,601868,2011-08-12 00:00:00.0,49110,0,81,15.71,33.00,33.00
6035783,601868,2011-08-12 00:00:00.0,57110,0,183,38.97,80.00,75.20
6035784,601868,2011-08-12 00:00:00.0,58110,0,134,56.88,79.98,75.18
6035785,601868,2011-08-12 00:00:00.0,59110,0,92,38.58,59.99,58.79
6035786,601868,2011-08-12 00:00:00.0,60110,0,275,9.89,20.00,19.60
6035797,601869,2011-08-15 00:00:00.0,61110,0,488,19.52,40.00,38.80
6035798,601869,2011-08-15 00:00:00.0,62110,0,350,46.52,80.00,75.20
6035799,601869,2011-08-15 00:00:00.0,96110,0,101,9.00,23.00,22.54
6035800,601869,2011-08-15 00:00:00.0,67110,0,14,116.19,294.38,288.49
6035801,601869,2011-08-15 00:00:00.0,18110,0,263,86.00,146.83,138.02
6035802,601869,2011-08-15 00:00:00.0,19110,0,166,150.00,265.14,249.23
6035803,601869,2011-08-15 00:00:00.0,16110,0,1407,1.00,2.06,2.00
6035804,601869,2011-08-15 00:00:00.0,6110,0,267,79.56,129.72,121.94
6035805,601869,2011-08-15 00:00:00.0,82110,0,346,20.00,32.72,32.07
6035806,601869,2011-08-15 00:00:00.0,83110,0,59,56.23,96.44,92.58
6035807,601869,2011-08-15 00:00:00.0,85110,0,45,176.47,359.60,338.02
8150267,827319,2011-07-14 00:00:00.0,129150,0,23,140.12,240.00,240.00
8150268,814714,2011-09-20 00:00:00.0,134120,0,161,4.95,12.20,12.20
8150269,833684,2010-05-25 00:00:00.0,147110,0,137,20.14,30.70,30.70
8150270,807096,2010-06-22 00:00:00.0,127130,0,103,11.71,20.15,20.15
8150271,822403,2011-07-18 00:00:00.0,151110,0,42,90.19,145.00,145.00
8150272,823924,2012-12-19 00:00:00.0,131120,0,51,18.78,40.70,40.70
8150273,802383,2011-05-13 00:00:00.0,147170,0,286,20.75,30.40,30.40
8150274,808973,2010-01-28 00:00:00.0,130110,0,43,82.96,160.80,160.80
8150275,834560,2011-04-28 00:00:00.0,124140,0,114,18.38,26.80,26.80
8150276,818721,2013-04-20 00:00:00.0,151110,0,12,90.35,145.00,145.00
8150277,822046,2012-04-24 00:00:00.0,126110,0,202,25.35,45.63,45.63
8150278,804292,2013-03-20 00:00:00.0,124170,0,442,17.95,26.80,26.80
8150279,810607,2010-07-30 00:00:00.0,143110,0,11,28.85,48.60,48.60
8150280,817959,2010-12-16 00:00:00.0,144110,0,27,104.56,188.00,188.00
8150281,828573,2011-03-22 00:00:00.0,128210,0,35,34.52,62.65,62.65
8150282,826577,2013-07-16 00:00:00.0,149140,0,133,33.59,62.65,62.65
8150283,821481,2010-02-25 00:00:00.0,144110,0,1,101.38,188.00,188.00
8150284,801557,2011-08-22 00:00:00.0,126140,0,35,28.73,43.85,43.85
8150285,802148,2011-10-24 00:00:00.0,125110,0,6,42.94,73.00,73.00
8150286,818703,2013-01-15 00:00:00.0,126120,0,248,28.07,43.85,43.85
8150287,828536,2012-12-20 00:00:00.0,122140,0,281,36.30,67.50,67.50
8150288,810727,2010-06-16 00:00:00.0,145170,0,51,144.32,260.00,260.00
8150289,831964,2012-04-17 00:00:00.0,149160,0,112,34.39,62.65,62.65
8150290,807134,2012-12-18 00:00:00.0,130130,0,63,94.74,179.60,179.60
8150291,831186,2012-09-25 00:00:00.0,127130,0,361,12.52,21.25,21.25
8150292,818799,2010-08-23 00:00:00.0,145170,0,5,144.72,260.00,260.00
8150293,822614,2012-01-19 00:00:00.0,143120,0,15,30.73,50.30,50.30
8150294,808696,2011-05-12 00:00:00.0,132110,0,88,40.28,80.00,80.00
8150295,816206,2011-06-14 00:00:00.0,126110,0,241,27.04,42.25,42.25
8150296,813539,2011-03-24 00:00:00.0,141110,0,17,152.80,238.00,238.00
8150297,831354,2011-04-27 00:00:00.0,145130,0,3,151.76,260.00,260.00
8150298,822996,2011-02-21 00:00:00.0,129180,0,3,138.24,249.00,249.00
8150299,822806,2011-07-18 00:00:00.0,145130,0,12,151.80,260.00,260.00
8150300,805044,2011-07-27 00:00:00.0,141110,0,38,155.30,238.00,238.00
8150301,831641,2011-10-25 00:00:00.0,147150,0,137,21.50,34.00,34.00
8150302,811944,2010-10-19 00:00:00.0,147160,0,72,20.40,30.40,30.40
8150303,831923,2011-05-16 00:00:00.0,132110,0,52,40.28,80.00,80.00
8150304,815255,2011-08-15 00:00:00.0,144170,0,17,99.20,180.00,180.00
1012337,100724,2010-07-22 00:00:00.0,11110,60402,79,250.00,370.13,370.13
1012348,100725,2010-07-19 00:00:00.0,31110,60402,124,7.50,16.29,0.00
1012349,100725,2010-07-19 00:00:00.0,11110,60402,124,250.00,370.13,370.13
1012350,100725,2010-07-19 00:00:00.0,29110,0,230,41.18,73.50,68.36
1012351,100725,2010-07-19 00:00:00.0,17110,0,588,60.00,90.09,83.78
1012353,100725,2010-07-19 00:00:00.0,84110,0,380,78.55,116.73,108.56
1012354,100725,2010-07-19 00:00:00.0,63110,0,167,30.00,48.88,46.92
1012355,100725,2010-07-19 00:00:00.0,18110,10214,694,86.00,146.83,117.46
1012356,100725,2010-07-30 00:00:00.0,87110,0,1646,1.83,6.01,5.71
1012357,100725,2010-07-19 00:00:00.0,88110,0,946,1.88,7.00,6.79
1012358,100725,2010-07-19 00:00:00.0,64110,0,130,20.00,41.61,39.95
1012359,100725,2010-07-19 00:00:00.0,66110,0,78,45.00,98.01,91.15
1012370,100726,2010-07-26 00:00:00.0,31110,60402,102,7.50,16.29,0.00
1012371,100726,2010-07-26 00:00:00.0,11110,60402,102,250.00,370.13,370.13
1012372,100726,2010-07-26 00:00:00.0,84110,0,264,78.55,116.73,108.56
1012373,100726,2010-07-26 00:00:00.0,63110,0,125,30.00,48.88,46.92
1012374,100726,2010-07-26 00:00:00.0,29110,0,140,41.18,73.50,68.36
1012375,100726,2010-07-26 00:00:00.0,17110,0,472,60.00,90.09,83.78
1012376,100726,2010-07-26 00:00:00.0,32110,0,467,16.67,27.37,26.55
1012377,100726,2010-07-26 00:00:00.0,35110,0,230,17.78,26.54,25.74
1012378,100726,2010-07-26 00:00:00.0,36110,0,431,18.05,34.90,33.50
1012379,100726,2010-07-26 00:00:00.0,41110,0,215,15.62,35.09,33.69
1012380,100726,2010-07-26 00:00:00.0,25110,0,219,166.66,285.89,265.88
1012392,100727,2010-07-19 00:00:00.0,31110,60402,81,7.50,16.29,0.00
1012393,100727,2010-07-19 00:00:00.0,11110,60402,81,250.00,370.13,370.13
1012394,100727,2010-07-19 00:00:00.0,25110,0,199,166.66,285.89,265.88
1012405,100728,2010-07-19 00:00:00.0,12110,0,74,396.00,650.89,605.33
1012406,100728,2010-07-19 00:00:00.0,65110,0,117,39.00,81.55,75.84
1012407,100728,2010-07-19 00:00:00.0,67110,0,26,116.19,294.38,276.72
1012408,100728,2010-07-19 00:00:00.0,90110,0,4380,2.42,7.00,6.51
1012409,100728,2010-07-19 00:00:00.0,92110,0,1043,1.96,5.00,4.80
1012410,100728,2010-07-19 00:00:00.0,93110,0,1288,1.79,5.00,4.80
1012411,100728,2010-07-19 00:00:00.0,95110,0,1038,2.76,6.00,5.76
1012412,100728,2010-07-19 00:00:00.0,68110,0,60,26.15,61.84,58.75
1012413,100728,2010-07-19 00:00:00.0,31110,60402,82,7.50,16.29,0.00
1012414,100728,2010-08-08 00:00:00.0,11110,60402,82,250.00,370.13,370.13
1012425,100729,2010-08-02 00:00:00.0,102110,0,77,490.95,928.53,863.53
1012426,100729,2010-08-02 00:00:00.0,103110,0,58,277.76,532.75,495.46
8097829,807362,2012-08-14 00:00:00.0,148130,0,59,22.79,40.50,40.50
8097830,825041,2013-06-25 00:00:00.0,131110,0,33,18.58,40.20,40.20
8097831,824770,2010-08-24 00:00:00.0,141110,0,42,150.98,238.00,238.00
8097832,804658,2013-03-20 00:00:00.0,144120,0,44,109.08,199.60,199.60
8097833,824858,2013-02-12 00:00:00.0,147130,0,217,21.90,33.15,33.15
8097834,821162,2012-02-08 00:00:00.0,124170,0,11,18.25,26.80,26.80
8097835,802524,2011-09-19 00:00:00.0,122120,0,173,37.39,67.50,67.50
8097836,833474,2013-07-19 00:00:00.0,149150,0,48,33.59,62.65,62.65
8097837,820176,2011-08-22 00:00:00.0,128140,0,26,39.77,65.00,65.00
8097838,816961,2012-02-09 00:00:00.0,149130,0,20,34.47,62.65,62.65
8097839,802881,2012-03-13 00:00:00.0,124190,0,109,28.60,43.85,43.85
8097840,832102,2012-11-13 00:00:00.0,129180,0,6,138.34,249.00,249.00
8097841,833875,2011-03-18 00:00:00.0,145160,0,10,138.10,249.00,249.00
8097842,802128,2013-03-14 00:00:00.0,127130,0,224,12.42,21.25,21.25
8097843,817312,2013-01-23 00:00:00.0,122140,0,50,36.03,67.50,67.50
8097844,801195,2010-05-19 00:00:00.0,126130,0,88,26.77,42.25,42.25
8097845,832559,2013-07-16 00:00:00.0,126150,0,23,31.37,48.25,48.25
8097846,827411,2013-05-14 00:00:00.0,147140,0,115,25.51,37.25,37.25
8097847,832297,2011-07-26 00:00:00.0,144180,0,36,103.12,188.00,188.00
8097848,819674,2010-02-23 00:00:00.0,145170,0,15,143.88,260.00,260.00
8097849,823655,2011-09-19 00:00:00.0,144180,0,34,103.68,188.00,188.00
8097850,831740,2011-08-12 00:00:00.0,144180,0,38,103.60,188.00,188.00
8097851,815346,2010-04-12 00:00:00.0,145110,0,59,115.64,220.00,220.00
8097852,819696,2011-06-20 00:00:00.0,154150,0,15,67.76,130.00,130.00
8097853,826626,2012-12-15 00:00:00.0,132150,0,104,46.88,91.75,91.75
8097854,819998,2012-06-15 00:00:00.0,149140,0,100,34.44,62.65,62.65
8097855,829150,2011-11-21 00:00:00.0,128150,0,102,39.65,65.00,65.00
8097856,819158,2012-06-15 00:00:00.0,149120,0,50,34.44,62.65,62.65
8097857,834235,2011-08-03 00:00:00.0,125110,0,53,42.78,73.00,73.00
8097858,813505,2011-04-18 00:00:00.0,148120,0,169,24.21,40.50,40.50
8097859,810493,2013-05-18 00:00:00.0,135130,0,55,77.89,167.90,167.90
8097860,805902,2012-07-24 00:00:00.0,147130,0,300,22.19,33.15,33.15
8097861,821476,2010-01-21 00:00:00.0,135120,0,54,96.00,160.00,160.00
8097862,813230,2012-01-18 00:00:00.0,132150,0,14,44.66,87.00,87.00
8097863,819582,2011-12-26 00:00:00.0,144120,0,43,106.10,188.00,188.00
8097864,809310,2011-10-19 00:00:00.0,129110,0,36,116.00,220.00,220.00
8097865,829178,2011-12-19 00:00:00.0,126110,0,11,27.04,42.25,42.25
8097866,824293,2010-01-19 00:00:00.0,145110,0,14,117.80,220.00,220.00
4032357,401803,2011-11-08 00:00:00.0,69110,0,33,49.69,110.00,104.50
4032358,401803,2011-10-24 00:00:00.0,73110,0,2681,8.56,12.78,12.01
4032359,401803,2011-10-24 00:00:00.0,76110,0,253,23.53,40.52,39.30
4032360,401803,2011-10-24 00:00:00.0,84110,0,247,78.55,116.73,109.73
4032361,401803,2011-10-24 00:00:00.0,98110,0,104,2.83,6.00,6.00
4032362,401803,2011-10-24 00:00:00.0,87110,0,790,1.83,6.01,5.89
4032363,401803,2011-10-24 00:00:00.0,89110,0,817,2.33,7.00,6.86
4032364,401803,2011-10-24 00:00:00.0,68230,0,32,26.15,61.84,60.60
4032365,401803,2011-10-24 00:00:00.0,63130,0,119,30.00,48.88,47.41
4032376,401804,2011-10-17 00:00:00.0,21110,0,427,19.17,40.65,39.43
4032377,401804,2011-10-17 00:00:00.0,12110,0,165,396.00,650.89,611.84
4032378,401804,2011-10-17 00:00:00.0,14110,0,142,426.00,677.03,636.41
4032379,401804,2011-10-17 00:00:00.0,8110,0,255,75.00,151.77,142.66
4032380,401804,2011-10-17 00:00:00.0,31110,0,720,7.50,16.29,15.80
4032381,401804,2011-10-17 00:00:00.0,39110,0,116,40.63,67.73,63.67
4032382,401804,2011-10-17 00:00:00.0,41110,0,273,15.62,35.09,34.04
4032393,401805,2011-10-26 00:00:00.0,57110,0,328,38.97,80.00,75.20
4032394,401805,2011-10-26 00:00:00.0,58110,0,230,56.88,79.98,75.18
4032395,401805,2011-10-26 00:00:00.0,59110,0,176,38.58,59.99,58.19
4032396,401805,2011-10-26 00:00:00.0,60110,0,513,9.89,20.00,19.40
4032397,401805,2011-10-26 00:00:00.0,61110,0,820,19.52,40.00,38.40
4032398,401805,2011-10-26 00:00:00.0,62110,0,536,46.52,80.00,75.20
4032399,401805,2011-10-26 00:00:00.0,19110,0,368,150.00,265.14,249.23
4032410,401806,2011-11-24 00:00:00.0,68250,0,44,26.15,61.84,59.98
4032411,401806,2011-11-24 00:00:00.0,68200,0,60,26.15,61.84,59.37
4032412,401806,2011-11-24 00:00:00.0,68120,0,23,26.15,61.84,61.84
4032413,401806,2011-12-25 00:00:00.0,69120,0,27,49.69,110.00,105.60
4032414,401806,2011-11-24 00:00:00.0,23110,0,345,65.25,104.48,98.21
4032415,401806,2011-11-24 00:00:00.0,4110,0,2081,0.85,3.66,3.48
4032426,401807,2011-11-21 00:00:00.0,85110,0,96,176.47,359.60,338.02
4032427,401807,2011-11-21 00:00:00.0,67110,0,19,116.19,294.38,285.55
4032428,401807,2011-11-21 00:00:00.0,33110,0,202,18.00,29.44,28.85
4032439,401808,2011-11-14 00:00:00.0,39110,0,135,40.63,67.73,63.67
4032440,401808,2011-11-14 00:00:00.0,68220,0,55,26.15,61.84,59.37
4032441,401808,2011-11-14 00:00:00.0,72110,0,23,72.50,148.30,143.85
4032442,401808,2011-11-14 00:00:00.0,74110,0,582,11.43,16.64,16.14
4032443,401808,2011-11-14 00:00:00.0,75110,0,266,80.00,119.69,112.51
4032444,401808,2011-11-14 00:00:00.0,100110,0,209,2.76,6.00,6.00
8244183,817865,2011-12-26 00:00:00.0,129180,0,14,138.24,249.00,249.00
8244184,823715,2013-05-16 00:00:00.0,131120,0,24,18.72,40.70,40.70
8244185,824631,2013-01-18 00:00:00.0,136140,0,184,28.34,47.30,47.30
8244186,816064,2013-04-13 00:00:00.0,144180,0,14,109.70,200.00,200.00
8244187,809804,2013-04-16 00:00:00.0,126140,0,262,27.79,43.85,43.85
8244188,828756,2011-08-22 00:00:00.0,148120,0,101,24.56,40.50,40.50
8244189,805121,2010-05-24 00:00:00.0,154130,0,21,65.38,120.30,120.30
8244190,831480,2012-11-19 00:00:00.0,147160,0,48,22.11,32.85,32.85
8244191,827999,2012-01-16 00:00:00.0,144170,0,19,98.96,180.00,180.00
8244192,814416,2011-04-18 00:00:00.0,143130,0,20,30.34,50.30,50.30
8244193,808893,2011-07-18 00:00:00.0,154130,0,7,68.16,120.30,120.30
8244194,817061,2012-02-15 00:00:00.0,128200,0,14,39.51,70.00,70.00
8244195,819671,2013-03-12 00:00:00.0,129120,0,3,120.54,229.60,229.60
8244196,809152,2013-02-06 00:00:00.0,128200,0,6,41.08,72.80,72.80
8244197,822051,2013-07-23 00:00:00.0,149120,0,21,33.59,62.65,62.65
8244198,828457,2011-02-18 00:00:00.0,127130,0,292,12.06,20.15,20.15
8244199,825594,2012-09-22 00:00:00.0,135110,0,5,78.07,167.50,167.50
8244200,820195,2012-11-20 00:00:00.0,149130,0,41,33.83,62.65,62.65
8244201,828563,2012-09-18 00:00:00.0,144180,0,59,109.96,200.00,200.00
8244202,809716,2013-02-20 00:00:00.0,123150,0,229,24.83,38.30,38.30
8244203,823751,2010-11-25 00:00:00.0,122120,0,65,36.10,67.50,67.50
8244204,819779,2010-05-17 00:00:00.0,128150,0,60,38.23,65.00,65.00
8244205,811473,2012-08-21 00:00:00.0,128140,0,6,39.21,65.00,65.00
8244206,812923,2013-05-14 00:00:00.0,136140,0,79,28.26,47.30,47.30
8244207,810111,2010-10-16 00:00:00.0,128190,0,177,38.61,65.00,65.00
8244208,817373,2013-05-16 00:00:00.0,124190,0,150,27.93,43.85,43.85
8244209,826614,2010-07-29 00:00:00.0,136140,0,124,27.06,44.90,44.90
8244210,821044,2011-09-26 00:00:00.0,147160,0,126,20.99,30.40,30.40
8244211,801960,2013-06-25 00:00:00.0,134130,0,643,5.26,12.90,12.90
8244212,810564,2010-01-20 00:00:00.0,122120,0,92,35.20,65.00,65.00
8244213,821647,2010-01-21 00:00:00.0,128190,0,152,39.00,65.00,65.00
8244214,829017,2012-08-11 00:00:00.0,144180,0,1,109.80,200.00,200.00
8244215,831028,2011-09-27 00:00:00.0,125110,0,94,42.92,73.00,73.00
8244216,812890,2013-02-12 00:00:00.0,124190,0,96,28.06,43.85,43.85
8244217,821083,2012-07-13 00:00:00.0,147130,0,208,22.19,33.15,33.15
8244218,823379,2011-03-14 00:00:00.0,127110,0,97,11.99,20.15,20.15
8244219,801174,2013-04-11 00:00:00.0,147170,0,83,21.93,32.85,32.85
8244220,801690,2011-04-26 00:00:00.0,145170,0,13,149.62,270.20,270.20
8244221,819899,2012-07-24 00:00:00.0,153110,0,4,153.41,235.00,235.00
6035808,601869,2011-08-15 00:00:00.0,66110,0,37,45.00,98.01,96.05
6035809,601869,2011-08-15 00:00:00.0,90110,0,1983,2.42,7.00,6.72
6035810,601869,2011-08-15 00:00:00.0,92110,0,852,1.96,5.00,4.90
6035811,601869,2011-08-15 00:00:00.0,94110,0,2038,1.85,5.00,4.75
6035822,601870,2011-08-17 00:00:00.0,26110,10228,188,213.33,370.86,333.77
6035823,601870,2011-08-17 00:00:00.0,20110,0,204,54.55,127.27,119.63
6035824,601870,2011-08-17 00:00:00.0,2110,0,588,6.62,12.53,12.15
6035825,601870,2011-08-17 00:00:00.0,68190,0,20,26.15,61.84,61.84
6035826,601870,2011-08-17 00:00:00.0,30110,0,297,6.75,14.77,14.47
6035827,601870,2011-08-17 00:00:00.0,68240,0,29,26.15,61.84,60.60
6035828,601870,2011-08-17 00:00:00.0,68250,0,25,26.15,61.84,60.60
6035829,601870,2011-08-17 00:00:00.0,69120,0,14,49.69,110.00,110.00
6035830,601870,2011-08-17 00:00:00.0,33110,0,135,18.00,29.44,28.85
6035831,601870,2011-08-17 00:00:00.0,34110,0,95,28.12,51.24,50.22
6035832,601870,2011-08-17 00:00:00.0,38110,0,157,20.00,31.55,30.92
6035833,601870,2011-08-17 00:00:00.0,70240,0,54,58.88,122.70,115.34
6035844,601871,2011-08-16 00:00:00.0,73110,0,2002,8.56,12.78,12.01
6035845,601871,2011-08-16 00:00:00.0,75110,0,150,80.00,119.69,112.51
6035846,601871,2011-08-16 00:00:00.0,77110,0,72,45.00,92.29,86.75
6035847,601871,2011-08-16 00:00:00.0,84110,0,127,78.55,116.73,109.73
6035848,601871,2011-08-16 00:00:00.0,65110,0,64,39.00,81.55,77.47
6035849,601871,2011-08-16 00:00:00.0,100110,0,124,2.76,6.00,6.00
6035850,601871,2011-08-16 00:00:00.0,87110,0,533,1.83,6.01,5.89
6035851,601871,2011-08-16 00:00:00.0,91110,0,647,1.95,5.00,4.90
6035862,601872,2011-08-17 00:00:00.0,77110,0,36,45.00,92.29,90.44
6035863,601872,2011-08-17 00:00:00.0,84110,0,112,78.55,116.73,109.73
6035864,601872,2011-08-17 00:00:00.0,65110,0,46,39.00,81.55,79.10
6035865,601872,2011-08-17 00:00:00.0,100110,0,123,2.76,6.00,6.00
6035866,601872,2011-08-17 00:00:00.0,87110,0,492,1.83,6.01,6.01
6035867,601872,2011-08-17 00:00:00.0,91110,0,573,1.95,5.00,4.90
6035868,601872,2011-08-17 00:00:00.0,78110,0,101,71.19,105.29,98.97
6035879,601873,2011-08-16 00:00:00.0,91110,0,614,1.95,5.00,4.90
6035880,601873,2011-08-16 00:00:00.0,78110,0,140,71.19,105.29,98.97
6035881,601873,2011-08-16 00:00:00.0,15110,0,23,490.00,831.88,790.29
6035882,601873,2011-08-16 00:00:00.0,111110,0,112,91.80,180.63,169.79
6035883,601873,2011-08-16 00:00:00.0,105110,0,45,690.00,1271.08,1194.82
6035894,601874,2011-08-18 00:00:00.0,7110,0,338,46.38,66.77,62.76
6035895,601874,2011-08-18 00:00:00.0,38110,0,137,20.00,31.55,30.92
6035896,601874,2011-08-18 00:00:00.0,17110,0,268,60.00,90.09,84.68
8150305,833944,2013-02-12 00:00:00.0,124180,0,325,20.19,30.50,30.50
8150306,824520,2012-12-15 00:00:00.0,125110,0,26,41.88,73.00,73.00
8150307,820180,2011-09-27 00:00:00.0,124140,0,267,18.48,26.80,26.80
8150308,831889,2012-05-18 00:00:00.0,127110,0,433,12.08,20.15,20.15
8150309,825778,2012-04-24 00:00:00.0,126120,0,58,28.45,43.85,43.85
8150310,823778,2013-01-11 00:00:00.0,147110,0,100,21.84,33.15,33.15
8150311,806012,2011-10-14 00:00:00.0,147180,0,241,20.54,30.40,30.40
8150312,825335,2012-02-13 00:00:00.0,124140,0,227,18.25,26.80,26.80
8150313,801887,2012-08-14 00:00:00.0,125150,0,26,42.22,73.00,73.00
8150314,810265,2012-04-24 00:00:00.0,128140,0,161,39.32,65.00,65.00
8150315,824113,2011-08-11 00:00:00.0,143130,0,60,30.76,50.30,50.30
8150316,830531,2013-05-14 00:00:00.0,128210,0,213,33.55,62.65,62.65
8150317,809685,2011-04-25 00:00:00.0,147120,0,166,20.59,30.70,30.70
8150318,805461,2012-11-13 00:00:00.0,128140,0,11,40.17,67.60,67.60
8150319,820762,2010-04-23 00:00:00.0,132110,0,80,39.23,80.00,80.00
8150320,807709,2012-09-22 00:00:00.0,136130,0,101,28.28,47.30,47.30
8150321,834844,2012-09-26 00:00:00.0,132110,0,52,41.64,84.00,84.00
8150322,827233,2013-01-11 00:00:00.0,132110,0,108,41.62,84.00,84.00
8150323,824215,2012-06-15 00:00:00.0,151110,0,52,90.36,145.00,145.00
8150324,820920,2011-11-14 00:00:00.0,133110,0,31,50.30,110.00,110.00
8150325,816609,2010-07-29 00:00:00.0,132120,0,43,39.63,80.00,80.00
8150326,809804,2013-04-16 00:00:00.0,123150,0,310,24.66,38.30,38.30
8150327,813917,2012-08-14 00:00:00.0,147110,0,51,22.18,33.15,33.15
8150328,804350,2012-07-19 00:00:00.0,132170,0,70,40.52,85.00,85.00
8150329,802968,2013-02-08 00:00:00.0,122140,0,52,36.41,67.50,67.50
8150330,818891,2012-03-22 00:00:00.0,127110,0,429,12.09,20.15,20.15
8150331,808245,2010-10-25 00:00:00.0,147120,0,102,20.36,30.70,30.70
8150332,830946,2012-08-14 00:00:00.0,127120,0,103,12.07,20.15,20.15
8150333,805242,2013-06-20 00:00:00.0,131110,0,56,18.58,40.20,40.20
8150334,821874,2012-08-09 00:00:00.0,130130,0,7,94.62,179.60,179.60
8150335,808830,2012-02-20 00:00:00.0,128150,0,98,39.51,65.00,65.00
8150336,833159,2013-03-14 00:00:00.0,151130,0,45,223.59,358.00,358.00
8150337,828045,2010-02-16 00:00:00.0,147130,0,209,20.12,30.70,30.70
8150338,819569,2010-10-18 00:00:00.0,147130,0,24,20.36,30.70,30.70
8150339,806098,2012-10-24 00:00:00.0,125160,0,8,41.88,73.00,73.00
8150340,811917,2010-08-16 00:00:00.0,134120,0,305,4.76,12.20,12.20
8150341,807523,2013-06-25 00:00:00.0,128200,0,85,41.11,72.80,72.80
8150342,813258,2010-09-23 00:00:00.0,125110,0,41,39.86,70.00,70.00
1012427,100729,2010-08-02 00:00:00.0,104110,0,59,460.00,889.02,826.79
1012428,100729,2010-08-02 00:00:00.0,105110,0,64,690.00,1271.08,1182.10
1012429,100729,2010-08-02 00:00:00.0,112110,0,584,2.80,10.64,10.21
1012440,100730,2010-07-19 00:00:00.0,71110,0,33,41.12,95.62,92.75
1012441,100730,2010-07-19 00:00:00.0,68110,0,62,26.15,61.84,58.13
1012442,100730,2010-07-19 00:00:00.0,72110,0,23,72.50,148.30,142.37
1012453,100731,2010-07-19 00:00:00.0,37110,0,38,28.75,52.15,50.59
1012454,100731,2010-07-19 00:00:00.0,5110,0,583,34.97,54.93,52.18
1012465,100732,2010-07-21 00:00:00.0,111110,0,271,91.80,180.63,167.99
1012466,100732,2010-07-21 00:00:00.0,63110,0,188,30.00,48.88,46.92
1012467,100732,2010-07-21 00:00:00.0,78110,0,355,71.19,105.29,97.92
1012478,100733,2010-07-22 00:00:00.0,41110,0,78,15.62,35.09,34.04
1012479,100733,2010-07-22 00:00:00.0,25110,0,274,166.66,285.89,265.88
1012480,100733,2010-07-22 00:00:00.0,35110,0,308,17.78,26.54,25.74
1012481,100733,2010-07-22 00:00:00.0,66110,0,76,45.00,98.01,91.15
1012482,100733,2010-07-22 00:00:00.0,78110,0,301,71.19,105.29,97.92
1012483,100733,2010-07-22 00:00:00.0,99110,0,329,1.92,5.23,5.23
1012484,100733,2010-07-22 00:00:00.0,1110,0,3450,2.90,6.59,6.13
1012485,100733,2010-07-22 00:00:00.0,6110,0,383,85.11,129.72,120.64
1012486,100733,2010-07-22 00:00:00.0,40110,10211,1190,13.97,27.81,22.25
1012497,100734,2010-07-19 00:00:00.0,37110,0,50,28.75,52.15,50.59
1012508,100735,2010-07-19 00:00:00.0,82110,0,896,20.00,32.72,31.41
1012509,100735,2010-07-19 00:00:00.0,22110,0,394,9.00,17.65,17.12
1012510,100735,2010-07-19 00:00:00.0,99110,0,363,1.92,5.23,5.23
1012511,100735,2010-07-19 00:00:00.0,78110,0,323,71.19,105.29,97.92
1012512,100735,2010-07-19 00:00:00.0,6110,0,401,85.11,129.72,120.64
1012513,100735,2010-07-19 00:00:00.0,40110,10211,1224,13.97,27.81,22.25
1012514,100735,2010-07-19 00:00:00.0,1110,0,3616,2.90,6.59,6.13
1012525,100736,2010-07-19 00:00:00.0,102110,0,82,490.95,928.53,863.53
1012526,100736,2010-07-19 00:00:00.0,103110,0,61,277.76,532.75,495.46
1012527,100736,2010-07-19 00:00:00.0,104110,0,47,460.00,889.02,826.79
1012528,100736,2010-07-19 00:00:00.0,105110,0,58,690.00,1271.08,1182.10
1012529,100736,2010-07-19 00:00:00.0,112110,0,411,2.80,10.64,10.32
1012540,100737,2010-07-27 00:00:00.0,37110,0,46,28.75,52.15,52.15
1012551,100738,2010-07-20 00:00:00.0,82110,0,743,20.00,32.72,31.41
1012552,100738,2010-07-20 00:00:00.0,23110,0,145,65.25,104.48,97.17
1012553,100738,2010-07-20 00:00:00.0,18110,10214,466,86.00,146.83,117.46
1012554,100738,2010-07-20 00:00:00.0,26110,10213,256,213.33,370.86,296.69
8097867,805698,2012-10-20 00:00:00.0,149140,0,84,33.99,62.65,62.65
8097868,821147,2011-01-25 00:00:00.0,141110,0,14,153.37,238.00,238.00
8097869,808710,2013-07-16 00:00:00.0,143110,0,196,29.55,50.30,50.30
8097870,802573,2011-07-18 00:00:00.0,125120,0,73,42.78,73.00,73.00
8097871,820289,2012-07-18 00:00:00.0,135120,0,39,96.00,172.80,172.80
8097872,805290,2012-05-15 00:00:00.0,128140,0,14,39.36,65.00,65.00
8097873,823332,2013-05-17 00:00:00.0,129150,0,5,148.30,254.00,254.00
8097874,827711,2011-05-20 00:00:00.0,128140,0,69,39.45,65.00,65.00
8097875,828338,2013-02-09 00:00:00.0,135120,0,55,79.00,169.00,169.00
8097876,821595,2013-06-25 00:00:00.0,149140,0,23,33.46,62.65,62.65
8097877,812997,2011-11-21 00:00:00.0,146130,0,6,60.08,104.60,104.60
8097878,809917,2013-03-19 00:00:00.0,148130,0,17,24.21,43.00,43.00
8097879,801995,2012-06-20 00:00:00.0,144120,0,55,104.38,188.00,188.00
8097880,816038,2012-11-15 00:00:00.0,127130,0,137,12.49,21.25,21.25
8097881,830863,2010-06-15 00:00:00.0,144110,0,26,102.00,188.00,188.00
8097882,829465,2010-11-22 00:00:00.0,144110,0,12,102.42,188.00,188.00
8097883,811238,2010-02-19 00:00:00.0,133110,0,19,50.33,110.00,110.00
8097884,808510,2012-02-20 00:00:00.0,124120,0,99,18.25,26.80,26.80
8097885,817714,2010-08-20 00:00:00.0,125140,0,104,39.76,70.00,70.00
8097886,808672,2010-04-21 00:00:00.0,123120,0,166,23.96,37.25,37.25
8097887,816786,2011-09-26 00:00:00.0,151110,0,44,90.57,145.00,145.00
8097888,812999,2012-07-24 00:00:00.0,147120,0,148,22.19,33.15,33.15
8097889,830381,2011-12-28 00:00:00.0,147120,0,362,20.76,30.70,30.70
8097890,814573,2012-06-19 00:00:00.0,145170,0,24,149.86,270.20,270.20
8097891,812217,2010-09-13 00:00:00.0,123120,0,40,24.81,38.30,38.30
8097892,830967,2011-11-11 00:00:00.0,145130,0,2,152.02,260.00,260.00
8097893,825445,2013-01-22 00:00:00.0,152110,0,9,232.90,358.00,358.00
8097894,803230,2012-09-25 00:00:00.0,147140,0,303,25.55,37.25,37.25
8097895,831128,2012-10-16 00:00:00.0,144120,0,28,109.42,199.60,199.60
8097896,827111,2011-07-25 00:00:00.0,154130,0,13,68.16,120.30,120.30
8097897,818259,2011-08-22 00:00:00.0,128150,0,151,39.77,65.00,65.00
8097898,824431,2012-03-20 00:00:00.0,154110,0,55,66.92,120.30,120.30
8097899,802323,2011-05-19 00:00:00.0,145130,0,4,152.00,260.00,260.00
8097900,818615,2012-03-21 00:00:00.0,147120,0,103,20.67,30.70,30.70
8097901,817447,2013-05-21 00:00:00.0,128200,0,45,40.92,72.80,72.80
8097902,818326,2013-06-18 00:00:00.0,154150,0,52,71.26,136.90,136.90
8097903,826447,2013-04-19 00:00:00.0,128200,0,117,40.97,72.80,72.80
8097904,802732,2012-02-13 00:00:00.0,126110,0,43,25.35,45.63,45.63
4032445,401808,2011-11-14 00:00:00.0,85110,0,130,176.47,359.60,338.02
4032456,401809,2011-11-23 00:00:00.0,101110,0,104,221.00,461.00,433.34
4032457,401809,2011-11-23 00:00:00.0,2110,0,1264,6.62,12.53,12.03
4032458,401809,2011-11-23 00:00:00.0,6110,0,525,79.56,129.72,121.94
4032459,401809,2011-11-23 00:00:00.0,8110,0,307,75.00,151.77,142.66
4032460,401809,2011-11-23 00:00:00.0,38110,0,331,20.00,31.55,30.92
4032461,401809,2011-11-23 00:00:00.0,66110,0,63,45.00,98.01,93.11
4032462,401809,2011-11-23 00:00:00.0,68250,0,101,26.15,61.84,58.13
4032464,401809,2011-11-23 00:00:00.0,91110,0,916,1.95,5.00,4.90
4032465,401809,2011-11-23 00:00:00.0,94110,0,3074,1.85,5.00,4.70
4032466,401809,2011-11-23 00:00:00.0,65110,0,120,39.00,81.55,76.66
4032467,401809,2011-11-23 00:00:00.0,25110,0,101,166.66,285.89,268.74
4032468,401809,2011-11-23 00:00:00.0,21110,0,492,19.17,40.65,39.43
4032469,401809,2011-12-06 00:00:00.0,22110,0,420,8.14,17.65,17.30
4032480,401810,2011-11-21 00:00:00.0,78110,0,309,71.19,105.29,98.97
4032481,401810,2011-11-21 00:00:00.0,68120,0,23,26.15,61.84,61.84
4032482,401810,2011-11-21 00:00:00.0,104110,0,69,460.00,889.02,835.68
4032483,401810,2011-11-21 00:00:00.0,111110,0,225,91.80,180.63,169.79
4032484,401810,2011-11-21 00:00:00.0,107110,0,64,660.65,1359.72,1278.14
4032485,401810,2011-11-21 00:00:00.0,24110,0,577,52.50,76.86,72.25
4032486,401810,2011-11-21 00:00:00.0,26110,0,281,213.33,370.86,348.61
4032487,401810,2011-11-21 00:00:00.0,14110,0,179,426.00,677.03,636.41
4032488,401810,2011-11-21 00:00:00.0,76110,0,257,23.53,40.52,39.30
4032489,401810,2011-11-21 00:00:00.0,86110,0,1467,1.86,6.00,5.82
4032490,401810,2011-11-21 00:00:00.0,63140,0,166,30.00,48.88,47.41
4032491,401810,2011-11-21 00:00:00.0,63130,0,137,30.00,48.88,47.41
4032492,401810,2011-11-21 00:00:00.0,70240,0,98,58.88,122.70,115.34
4032493,401810,2011-11-21 00:00:00.0,64110,0,111,20.00,41.61,40.36
4032504,401811,2011-11-21 00:00:00.0,66110,0,44,45.00,98.01,95.07
4032505,401811,2011-11-21 00:00:00.0,92110,0,926,1.96,5.00,4.90
4032506,401811,2011-11-21 00:00:00.0,78110,0,231,71.19,105.29,98.97
4032507,401811,2011-11-21 00:00:00.0,68250,0,68,26.15,61.84,58.75
4032519,401812,2011-11-23 00:00:00.0,74110,0,416,11.43,16.64,16.31
4032520,401812,2011-11-23 00:00:00.0,75110,0,191,80.00,119.69,112.51
4032521,401812,2011-11-23 00:00:00.0,83110,0,94,56.23,96.44,90.65
4032522,401812,2011-11-23 00:00:00.0,84110,0,218,78.55,116.73,109.73
4032523,401812,2011-11-23 00:00:00.0,63110,0,106,30.00,48.88,47.41
4032534,401813,2011-11-14 00:00:00.0,6110,0,348,79.56,129.72,121.94
4032535,401813,2011-11-14 00:00:00.0,8110,0,204,75.00,151.77,142.66
8244222,809992,2013-01-16 00:00:00.0,144150,0,6,113.24,214.00,214.00
8244223,807938,2013-04-20 00:00:00.0,151130,0,12,223.67,358.00,358.00
8244224,831962,2010-08-26 00:00:00.0,135110,0,18,74.70,160.00,160.00
8244225,824364,2010-11-17 00:00:00.0,126130,0,181,28.09,43.85,43.85
8244226,814657,2012-03-06 00:00:00.0,149140,0,22,34.47,62.65,62.65
8244227,830857,2010-07-26 00:00:00.0,123160,0,40,24.01,37.25,37.25
8244228,806726,2013-01-22 00:00:00.0,149140,0,101,34.07,62.65,62.65
8244229,823666,2011-06-13 00:00:00.0,145130,0,22,151.42,260.00,260.00
8244230,819608,2010-11-24 00:00:00.0,131110,0,264,17.60,38.20,38.20
8244231,833417,2011-05-16 00:00:00.0,126140,0,27,28.55,43.85,43.85
8244232,818036,2012-05-11 00:00:00.0,129180,0,5,137.86,249.00,249.00
8244233,819301,2011-01-24 00:00:00.0,135120,0,11,102.40,160.00,160.00
8244234,805489,2011-01-24 00:00:00.0,125110,0,74,40.62,70.00,70.00
8244235,807390,2011-07-25 00:00:00.0,126140,0,180,28.83,43.85,43.85
8244236,825533,2011-05-16 00:00:00.0,154150,0,89,67.60,130.00,130.00
8244237,824662,2013-05-21 00:00:00.0,128210,0,158,33.55,62.65,62.65
8244238,827591,2012-10-16 00:00:00.0,132140,0,19,41.70,84.00,84.00
8244239,805655,2011-01-24 00:00:00.0,147110,0,261,20.51,30.70,30.70
8244240,800873,2012-11-13 00:00:00.0,136130,0,141,28.26,47.30,47.30
8244241,810555,2011-09-26 00:00:00.0,144180,0,6,103.68,188.00,188.00
8244242,804345,2010-07-26 00:00:00.0,124130,0,285,17.42,26.00,26.00
8244243,804285,2010-09-22 00:00:00.0,144110,0,39,102.80,188.00,188.00
8244244,819862,2012-10-16 00:00:00.0,144180,0,13,110.44,200.00,200.00
8244245,808974,2012-11-13 00:00:00.0,133110,0,4,50.23,110.00,110.00
8244246,821036,2013-03-09 00:00:00.0,145130,0,12,160.04,274.00,274.00
8244247,803303,2012-11-20 00:00:00.0,131130,0,75,17.08,40.50,40.50
8244248,810800,2013-01-17 00:00:00.0,124110,0,24,18.11,26.80,26.80
8244249,818104,2013-03-12 00:00:00.0,147130,0,265,21.86,33.15,33.15
8244250,823104,2013-02-12 00:00:00.0,147180,0,295,22.28,32.85,32.85
8244251,832365,2012-08-18 00:00:00.0,132120,0,35,40.49,80.00,80.00
8244252,823672,2013-05-14 00:00:00.0,131120,0,151,18.72,40.70,40.70
8244253,827220,2012-12-18 00:00:00.0,129130,0,41,120.92,229.60,229.60
8244254,806250,2013-06-13 00:00:00.0,129150,0,3,148.52,254.00,254.00
8244255,807890,2013-02-08 00:00:00.0,132170,0,13,42.54,89.30,89.30
8244256,809928,2011-05-19 00:00:00.0,124140,0,357,18.31,26.80,26.80
8244257,826098,2010-07-27 00:00:00.0,147120,0,276,20.33,30.70,30.70
8244258,825277,2010-08-23 00:00:00.0,144180,0,81,103.52,188.00,188.00
8244259,804435,2012-07-17 00:00:00.0,136140,0,24,28.80,47.30,47.30
6035897,601874,2011-08-18 00:00:00.0,4110,0,719,0.85,3.66,3.59
6035898,601874,2011-08-18 00:00:00.0,70240,0,41,58.88,122.70,115.34
6035899,601874,2011-08-18 00:00:00.0,73110,0,1518,8.56,12.78,12.14
6035900,601874,2011-08-18 00:00:00.0,75110,0,143,80.00,119.69,112.51
6035911,601875,2011-08-22 00:00:00.0,114110,0,50,79.70,219.30,206.14
6035912,601875,2011-08-22 00:00:00.0,103110,0,34,277.76,532.75,500.79
6035923,601876,2011-08-22 00:00:00.0,96110,0,86,9.00,23.00,23.00
6035924,601876,2011-08-22 00:00:00.0,16110,0,1092,1.00,2.06,2.00
6035925,601876,2011-09-08 00:00:00.0,6110,0,196,79.56,129.72,121.94
6035926,601876,2011-08-22 00:00:00.0,30110,0,229,6.75,14.77,14.47
6035927,601876,2011-08-22 00:00:00.0,26110,10228,156,213.33,370.86,333.77
6035928,601876,2011-08-22 00:00:00.0,69120,0,11,49.69,110.00,110.00
6035929,601876,2011-08-22 00:00:00.0,71110,0,14,41.12,95.62,95.62
6035930,601876,2011-08-22 00:00:00.0,74110,0,339,11.43,16.64,16.31
6035931,601876,2011-08-22 00:00:00.0,76110,0,154,23.53,40.52,39.30
6035932,601876,2011-08-22 00:00:00.0,68240,0,20,26.15,61.84,61.84
6035933,601876,2011-08-22 00:00:00.0,50110,0,1905,1.96,4.00,3.84
6035934,601876,2011-08-22 00:00:00.0,51110,0,129,34.47,70.00,65.80
6035935,601876,2011-08-22 00:00:00.0,52110,0,184,18.35,38.00,36.86
6035936,601876,2011-08-22 00:00:00.0,53110,0,95,22.20,39.99,39.19
6035947,601877,2011-08-18 00:00:00.0,71110,0,21,41.12,95.62,95.62
6035948,601877,2011-08-18 00:00:00.0,68190,0,26,26.15,61.84,60.60
6035949,601877,2011-08-18 00:00:00.0,68200,0,38,26.15,61.84,60.60
6035950,601877,2011-08-18 00:00:00.0,68240,0,32,26.15,61.84,60.60
6035951,601877,2011-08-18 00:00:00.0,68220,0,41,26.15,61.84,59.98
6035952,601877,2011-08-18 00:00:00.0,50110,0,1892,1.96,4.00,3.84
6035953,601877,2011-08-18 00:00:00.0,51110,0,197,34.47,70.00,65.80
6035954,601877,2011-08-18 00:00:00.0,52110,0,315,18.35,38.00,36.86
6035955,601877,2011-08-18 00:00:00.0,53110,0,152,22.20,39.99,38.79
6035956,601877,2011-08-18 00:00:00.0,54110,0,209,22.36,52.99,51.40
6035957,601877,2011-08-18 00:00:00.0,30110,0,425,6.75,14.77,14.47
6035958,601877,2011-08-18 00:00:00.0,26110,10228,257,213.33,370.86,333.77
6035959,601877,2011-08-18 00:00:00.0,18110,0,434,86.00,146.83,138.02
6035960,601877,2011-08-18 00:00:00.0,19110,0,282,150.00,265.14,249.23
6035961,601877,2011-08-18 00:00:00.0,49110,0,86,15.71,33.00,33.00
6035962,601877,2011-08-18 00:00:00.0,57110,0,267,38.97,80.00,75.20
6035963,601877,2011-08-18 00:00:00.0,58110,0,188,56.88,79.98,75.18
6035964,601877,2011-08-18 00:00:00.0,59110,0,131,38.58,59.99,58.19
8150343,802113,2012-06-26 00:00:00.0,128200,0,56,39.39,70.00,70.00
8150344,834136,2011-07-18 00:00:00.0,144180,0,14,103.12,188.00,188.00
8150345,801436,2012-08-15 00:00:00.0,148110,0,176,24.27,40.50,40.50
8150346,817413,2011-10-26 00:00:00.0,144200,0,43,95.84,188.00,188.00
8150347,805878,2013-04-16 00:00:00.0,147170,0,425,22.17,32.85,32.85
8150348,818120,2012-06-14 00:00:00.0,153110,0,24,152.60,235.00,235.00
8150349,820740,2013-02-07 00:00:00.0,145120,0,14,148.74,254.00,254.00
8150350,828153,2010-02-25 00:00:00.0,128150,0,56,38.34,65.00,65.00
8150351,817726,2011-11-11 00:00:00.0,147160,0,146,20.92,30.40,30.40
8150352,808958,2011-04-18 00:00:00.0,144110,0,10,104.94,188.00,188.00
8150353,818093,2012-07-19 00:00:00.0,147130,0,170,22.19,33.15,33.15
8150354,816317,2012-01-17 00:00:00.0,145130,0,24,151.54,260.00,260.00
8150355,831845,2011-02-21 00:00:00.0,125110,0,76,42.44,73.00,73.00
8150356,822328,2011-05-16 00:00:00.0,126140,0,29,28.55,43.85,43.85
8150357,804764,2013-05-17 00:00:00.0,143140,0,59,31.20,50.80,50.80
8150358,830963,2013-01-15 00:00:00.0,134120,0,543,5.07,12.90,12.90
8150359,818233,2010-07-29 00:00:00.0,148110,0,157,23.79,40.50,40.50
8150360,805261,2011-06-22 00:00:00.0,124140,0,293,18.55,26.80,26.80
8150361,809117,2013-07-23 00:00:00.0,125160,0,149,41.30,73.00,73.00
8150362,832815,2010-06-14 00:00:00.0,128140,0,31,38.43,65.00,65.00
8150363,817527,2011-09-19 00:00:00.0,132110,0,21,40.98,80.00,80.00
8150364,830346,2011-11-21 00:00:00.0,128210,0,67,34.95,62.65,62.65
8150365,828188,2012-06-26 00:00:00.0,126110,0,73,25.35,45.63,45.63
8150366,815985,2011-09-27 00:00:00.0,141110,0,54,155.02,238.00,238.00
8150367,821074,2012-06-19 00:00:00.0,144170,0,21,103.66,189.00,189.00
8150368,814761,2013-03-12 00:00:00.0,149150,0,102,33.71,62.65,62.65
8150369,807649,2012-01-23 00:00:00.0,144170,0,15,98.96,180.00,180.00
8150370,807216,2011-06-24 00:00:00.0,130110,0,32,88.18,167.20,167.20
8150371,804990,2011-10-24 00:00:00.0,127110,0,253,12.17,20.15,20.15
8150372,821090,2011-08-19 00:00:00.0,147170,0,250,21.03,30.40,30.40
8150373,813857,2012-10-16 00:00:00.0,128210,0,33,33.99,62.65,62.65
8150374,802241,2011-06-22 00:00:00.0,123120,0,237,25.41,38.30,38.30
8150375,831687,2012-10-16 00:00:00.0,126140,0,65,28.12,43.85,43.85
8150376,833606,2013-05-14 00:00:00.0,124180,0,158,20.15,30.50,30.50
8150377,801117,2012-08-21 00:00:00.0,129150,0,11,148.02,254.00,254.00
8150378,821246,2013-04-20 00:00:00.0,147110,0,514,21.76,33.15,33.15
8150379,813282,2011-06-14 00:00:00.0,151110,0,35,90.39,145.00,145.00
8150380,831830,2011-09-28 00:00:00.0,152110,0,4,237.83,358.00,358.00
1012555,100738,2010-07-20 00:00:00.0,66110,0,53,45.00,98.01,93.11
1012556,100738,2010-07-20 00:00:00.0,97110,0,358,24.04,35.00,33.60
1012557,100738,2010-07-20 00:00:00.0,98110,0,250,2.83,6.00,6.00
1012558,100738,2010-07-20 00:00:00.0,89110,0,1353,2.33,7.00,6.72
1012559,100738,2010-07-20 00:00:00.0,92110,0,946,1.96,5.00,4.85
1012560,100738,2010-07-20 00:00:00.0,65110,0,125,39.00,81.55,75.84
1012561,100738,2010-07-20 00:00:00.0,67110,0,30,116.19,294.38,276.72
1012562,100738,2010-07-20 00:00:00.0,75110,0,234,80.00,119.69,111.31
1012563,100738,2010-07-20 00:00:00.0,83110,0,118,56.23,96.44,89.69
1012564,100738,2010-07-20 00:00:00.0,21110,0,272,19.17,40.65,39.02
1012565,100738,2010-07-20 00:00:00.0,11110,0,196,250.00,370.13,344.22
1012566,100738,2010-07-20 00:00:00.0,68110,0,71,26.15,61.84,57.51
1012567,100738,2010-07-20 00:00:00.0,24110,10212,328,52.50,76.86,69.17
1012568,100738,2010-07-20 00:00:00.0,19110,0,235,150.00,265.14,246.58
1012569,100738,2010-07-20 00:00:00.0,20110,0,269,69.00,127.27,118.36
1012570,100738,2010-07-20 00:00:00.0,5110,0,565,34.97,54.93,52.18
1012571,100738,2010-07-20 00:00:00.0,96110,0,325,9.10,23.00,22.31
1012572,100738,2010-07-20 00:00:00.0,10110,0,596,10.00,19.29,18.52
1012573,100738,2010-07-20 00:00:00.0,33110,0,252,18.00,29.44,28.56
1012574,100738,2010-07-20 00:00:00.0,34110,0,151,28.12,51.24,49.19
1012585,100739,2010-07-19 00:00:00.0,79110,0,119,92.58,134.11,124.72
1012586,100739,2010-07-19 00:00:00.0,81110,0,50,40.00,85.56,82.14
1012587,100739,2010-07-19 00:00:00.0,73110,0,2529,8.56,12.78,11.89
1012588,100739,2010-07-28 00:00:00.0,74110,0,564,11.43,16.64,15.97
1012589,100739,2010-07-19 00:00:00.0,77110,0,94,45.00,92.29,85.83
1012590,100739,2010-07-19 00:00:00.0,13110,0,190,392.57,582.42,541.65
1012591,100739,2010-07-19 00:00:00.0,4110,0,1086,0.85,3.66,3.51
1012592,100739,2010-07-19 00:00:00.0,7110,0,486,46.38,66.77,62.10
1012594,100739,2010-07-19 00:00:00.0,29110,0,156,41.18,73.50,68.36
1012595,100739,2010-07-19 00:00:00.0,22110,0,270,9.00,17.65,17.12
1012596,100739,2010-07-19 00:00:00.0,23110,0,212,65.25,104.48,97.17
1012607,100740,2010-07-19 00:00:00.0,17110,0,403,60.00,90.09,83.78
1012608,100740,2010-07-19 00:00:00.0,28110,0,490,16.00,33.59,32.58
1012609,100740,2010-07-19 00:00:00.0,41110,0,53,15.62,35.09,34.04
1012610,100740,2010-07-19 00:00:00.0,63110,0,113,30.00,48.88,46.92
1012611,100740,2010-07-19 00:00:00.0,64110,0,87,20.00,41.61,40.36
1012613,100740,2010-07-19 00:00:00.0,11110,0,158,250.00,370.13,344.22
1012614,100740,2010-07-19 00:00:00.0,14110,0,81,426.00,677.03,629.64
8097905,830853,2011-06-29 00:00:00.0,126110,0,57,27.04,42.25,42.25
8097906,828650,2012-03-20 00:00:00.0,146120,0,63,60.14,104.60,104.60
8097907,811692,2013-04-12 00:00:00.0,145170,0,26,150.14,270.20,270.20
8097908,819869,2010-10-18 00:00:00.0,147130,0,180,20.36,30.70,30.70
8097909,811037,2012-10-17 00:00:00.0,132170,0,40,42.63,89.30,89.30
8097910,832598,2013-06-15 00:00:00.0,129130,0,25,120.24,229.60,229.60
8097911,801972,2012-10-16 00:00:00.0,144200,0,10,101.98,200.00,200.00
8097912,800158,2013-02-12 00:00:00.0,126140,0,17,28.06,43.85,43.85
8097913,811395,2011-10-25 00:00:00.0,144180,0,5,103.66,188.00,188.00
8097914,820882,2012-08-14 00:00:00.0,131120,0,72,18.78,40.70,40.70
8097915,826511,2010-01-28 00:00:00.0,128140,0,132,39.00,65.00,65.00
8097916,808702,2013-02-12 00:00:00.0,124180,0,276,20.19,30.50,30.50
8097917,826699,2011-03-14 00:00:00.0,147160,0,311,20.78,30.40,30.40
8097918,828866,2011-05-23 00:00:00.0,147120,0,176,20.58,30.70,30.70
8097919,806447,2012-05-22 00:00:00.0,147160,0,72,20.82,30.40,30.40
8097920,827957,2011-10-17 00:00:00.0,147160,0,227,20.99,30.40,30.40
8097921,828645,2011-08-22 00:00:00.0,127110,0,505,12.18,20.15,20.15
8097922,818232,2011-02-14 00:00:00.0,148110,0,21,24.23,40.50,40.50
8097923,834895,2012-04-24 00:00:00.0,147120,0,66,20.52,30.70,30.70
8097924,822561,2012-04-17 00:00:00.0,147110,0,24,20.52,30.70,30.70
8097925,812092,2010-07-21 00:00:00.0,124130,0,226,17.42,26.00,26.00
8097926,825112,2010-01-26 00:00:00.0,122120,0,84,35.20,65.00,65.00
8097927,811024,2013-07-23 00:00:00.0,149140,0,25,33.59,62.65,62.65
8097928,808294,2013-04-16 00:00:00.0,130120,0,32,84.64,167.20,167.20
8097929,819652,2012-10-16 00:00:00.0,128140,0,40,39.98,67.60,67.60
8097930,812769,2013-02-09 00:00:00.0,152110,0,20,231.88,358.00,358.00
8097931,824106,2012-12-20 00:00:00.0,148120,0,227,25.13,42.75,42.75
8097932,802339,2010-03-22 00:00:00.0,126110,0,231,25.35,42.25,42.25
8097933,829397,2010-05-18 00:00:00.0,147160,0,343,20.31,30.40,30.40
8097934,828425,2013-01-22 00:00:00.0,124180,0,107,20.18,30.50,30.50
8097935,807756,2011-05-25 00:00:00.0,145160,0,27,138.42,249.00,249.00
8097936,822880,2010-11-16 00:00:00.0,154110,0,10,65.68,120.30,120.30
8097937,820966,2012-06-26 00:00:00.0,128200,0,103,39.39,70.00,70.00
8097938,802120,2012-04-18 00:00:00.0,128150,0,40,39.32,65.00,65.00
8097939,801965,2012-06-19 00:00:00.0,128210,0,30,34.44,62.65,62.65
8097940,825391,2011-10-24 00:00:00.0,145170,0,2,149.66,270.20,270.20
8097941,822391,2010-01-22 00:00:00.0,144110,0,27,103.56,188.00,188.00
8097942,826306,2011-01-17 00:00:00.0,135120,0,10,102.40,160.00,160.00
4032536,401813,2011-11-14 00:00:00.0,38110,0,258,20.00,31.55,30.92
4032537,401813,2011-11-14 00:00:00.0,39110,0,105,40.63,67.73,63.67
4032538,401813,2011-11-14 00:00:00.0,24110,0,423,52.50,76.86,72.25
4032539,401813,2011-11-14 00:00:00.0,26110,0,206,213.33,370.86,348.61
4032550,401814,2011-11-10 00:00:00.0,18110,0,452,86.00,146.83,138.02
4032551,401814,2011-11-10 00:00:00.0,1110,0,3008,2.93,6.59,6.19
4032552,401814,2011-11-10 00:00:00.0,2110,0,839,6.62,12.53,12.15
4032553,401814,2011-11-10 00:00:00.0,112110,0,702,2.80,10.64,10.32
4032554,401814,2011-11-10 00:00:00.0,113110,0,737,6.00,12.81,12.43
4032565,401815,2011-11-22 00:00:00.0,6110,0,707,79.56,129.72,121.94
4032566,401815,2011-11-22 00:00:00.0,71110,0,45,41.12,95.62,92.75
4032567,401815,2011-12-14 00:00:00.0,82110,0,1086,20.00,32.72,31.41
4032568,401815,2011-11-22 00:00:00.0,64110,0,159,20.00,41.61,40.36
4032569,401815,2011-12-15 00:00:00.0,65110,0,172,39.00,81.55,76.66
4032570,401815,2011-11-22 00:00:00.0,89110,0,1599,2.33,7.00,6.72
4032581,401816,2011-12-16 00:00:00.0,93110,0,2614,1.79,5.00,4.70
4032582,401816,2011-11-21 00:00:00.0,79110,0,224,92.58,134.11,126.06
4032583,401816,2011-11-21 00:00:00.0,68230,0,106,26.15,61.84,58.13
4032584,401816,2011-11-21 00:00:00.0,68120,0,34,26.15,61.84,60.60
4032585,401816,2011-11-21 00:00:00.0,68190,0,53,26.15,61.84,59.37
4032597,401817,2011-11-21 00:00:00.0,51110,0,249,34.47,70.00,65.80
4032598,401817,2011-11-21 00:00:00.0,7110,0,590,46.38,66.77,62.76
4032609,401818,2011-11-21 00:00:00.0,61110,0,697,19.52,40.00,38.40
4032610,401818,2011-11-21 00:00:00.0,62110,0,471,46.52,80.00,75.20
4032611,401818,2011-11-21 00:00:00.0,19110,0,258,150.00,265.14,249.23
4032612,401818,2011-11-21 00:00:00.0,50110,0,2340,1.96,4.00,3.80
4032623,401819,2011-11-23 00:00:00.0,48110,0,325,53.93,110.00,103.40
4032624,401819,2011-11-23 00:00:00.0,49110,0,95,15.71,33.00,33.00
4032625,401819,2011-11-23 00:00:00.0,57110,0,314,38.97,80.00,75.20
4032626,401819,2011-11-23 00:00:00.0,58110,0,195,56.88,79.98,75.18
4032627,401819,2011-11-23 00:00:00.0,59110,0,135,38.58,59.99,58.19
4032628,401819,2011-11-23 00:00:00.0,60110,0,459,9.89,20.00,19.60
4032639,401820,2011-11-23 00:00:00.0,47110,0,390,43.77,65.00,61.10
4032640,401820,2011-11-23 00:00:00.0,48110,0,475,53.93,110.00,103.40
4032641,401820,2011-11-23 00:00:00.0,49110,0,139,15.71,33.00,32.34
4032642,401820,2011-11-23 00:00:00.0,57110,0,501,38.97,80.00,75.20
4032643,401820,2011-11-23 00:00:00.0,58110,0,312,56.88,79.98,75.18
4032644,401820,2011-11-23 00:00:00.0,59110,0,216,38.58,59.99,58.19
8244260,828627,2013-02-19 00:00:00.0,149150,0,80,33.69,62.65,62.65
8244261,822251,2011-08-11 00:00:00.0,125110,0,114,43.02,73.00,73.00
8244262,808644,2012-03-17 00:00:00.0,131130,0,49,16.98,40.50,40.50
8244263,829747,2012-04-21 00:00:00.0,144180,0,34,103.58,188.00,188.00
8244264,813181,2012-05-07 00:00:00.0,128140,0,22,39.32,65.00,65.00
8244265,808758,2010-11-18 00:00:00.0,135120,0,51,96.00,160.00,160.00
8244266,816039,2013-02-12 00:00:00.0,132140,0,30,41.40,84.00,84.00
8244267,833443,2011-07-19 00:00:00.0,125120,0,59,42.78,73.00,73.00
8244268,803587,2010-03-16 00:00:00.0,145130,0,43,151.50,260.00,260.00
8244269,814513,2012-07-20 00:00:00.0,149140,0,79,34.67,62.65,62.65
8244270,810010,2010-08-18 00:00:00.0,129160,0,3,139.80,240.00,240.00
8244271,816692,2011-04-25 00:00:00.0,132170,0,19,40.41,85.00,85.00
8244272,802825,2013-06-18 00:00:00.0,149140,0,39,33.46,62.65,62.65
8244273,814004,2012-04-13 00:00:00.0,125110,0,19,42.60,73.00,73.00
8244274,823138,2010-04-22 00:00:00.0,122120,0,88,34.67,65.00,65.00
8244275,805488,2012-07-17 00:00:00.0,123140,0,84,25.16,38.30,38.30
8244276,807483,2012-10-23 00:00:00.0,145170,0,10,150.12,270.20,270.20
8244277,820563,2013-04-16 00:00:00.0,149120,0,208,33.48,62.65,62.65
8244278,832779,2012-12-21 00:00:00.0,149130,0,142,34.01,62.65,62.65
8244279,827724,2012-03-20 00:00:00.0,152110,0,23,235.56,358.00,358.00
8244280,815489,2012-06-26 00:00:00.0,122120,0,146,36.94,67.50,67.50
8244281,808185,2012-11-16 00:00:00.0,131110,0,26,18.53,40.20,40.20
8244282,802987,2012-11-13 00:00:00.0,126140,0,143,27.97,43.85,43.85
8244283,831093,2011-06-14 00:00:00.0,144150,0,7,105.88,200.00,200.00
8244284,815580,2012-01-18 00:00:00.0,144180,0,5,103.36,188.00,188.00
8244285,812010,2011-09-26 00:00:00.0,129150,0,24,139.88,240.00,240.00
8244286,821839,2013-07-23 00:00:00.0,124190,0,253,27.89,43.85,43.85
8244287,834932,2013-02-19 00:00:00.0,125150,0,109,41.64,73.00,73.00
8244288,832760,2011-08-15 00:00:00.0,128140,0,37,39.77,65.00,65.00
8244289,803354,2012-08-18 00:00:00.0,148130,0,81,22.79,40.50,40.50
8244290,819878,2013-02-07 00:00:00.0,131130,0,27,17.12,40.50,40.50
8244291,834217,2012-11-20 00:00:00.0,123150,0,25,24.87,38.30,38.30
8244292,816438,2011-10-17 00:00:00.0,143130,0,19,30.67,50.30,50.30
8244293,809762,2011-04-18 00:00:00.0,128150,0,57,39.30,65.00,65.00
8244294,808928,2010-07-19 00:00:00.0,134110,0,1181,4.81,12.20,12.20
8244295,816149,2013-05-14 00:00:00.0,132140,0,80,41.34,84.00,84.00
8244296,816915,2012-02-13 00:00:00.0,130110,0,8,87.02,167.20,167.20
8244297,833939,2013-04-23 00:00:00.0,126150,0,87,31.43,48.25,48.25
6035965,601877,2011-08-18 00:00:00.0,60110,0,382,9.89,20.00,19.60
6035966,601877,2011-08-18 00:00:00.0,61110,0,590,19.52,40.00,38.40
6035977,601878,2011-08-15 00:00:00.0,110110,0,165,41.20,88.75,83.43
6035978,601878,2011-08-15 00:00:00.0,107110,0,39,660.65,1359.72,1278.14
6035989,601879,2011-08-15 00:00:00.0,70240,0,62,58.88,122.70,115.34
6035990,601879,2011-08-15 00:00:00.0,73110,0,2280,8.56,12.78,12.01
6035991,601879,2011-08-15 00:00:00.0,38110,0,226,20.00,31.55,30.92
6035992,601879,2011-08-15 00:00:00.0,17110,0,557,60.00,90.09,84.68
6035993,601879,2011-08-15 00:00:00.0,4110,0,1100,0.85,3.66,3.55
6035994,601879,2011-08-15 00:00:00.0,75110,0,206,80.00,119.69,112.51
6035995,601879,2011-08-15 00:00:00.0,77110,0,85,45.00,92.29,86.75
6035996,601879,2011-08-15 00:00:00.0,84110,0,165,78.55,116.73,109.73
6036007,601880,2011-08-25 00:00:00.0,65110,0,76,39.00,81.55,76.66
6036008,601880,2011-08-25 00:00:00.0,78110,0,197,71.19,105.29,98.97
6036009,601880,2011-08-25 00:00:00.0,68230,0,26,26.15,61.84,60.60
6036010,601880,2011-08-25 00:00:00.0,6110,0,310,79.56,129.72,121.94
6036011,601880,2011-08-25 00:00:00.0,66110,0,37,45.00,98.01,96.05
6036012,601880,2011-08-25 00:00:00.0,69120,0,18,49.69,110.00,107.80
6036013,601880,2011-08-25 00:00:00.0,74110,0,458,11.43,16.64,16.31
6036014,601880,2011-08-25 00:00:00.0,16110,0,1763,1.00,2.06,1.98
6036025,601881,2011-08-15 00:00:00.0,73110,0,1741,8.56,12.78,12.14
6036026,601881,2011-08-15 00:00:00.0,75110,0,131,80.00,119.69,112.51
6036027,601881,2011-08-15 00:00:00.0,100110,0,101,2.76,6.00,6.00
6036028,601881,2011-08-15 00:00:00.0,87110,0,500,1.83,6.01,5.89
