ORDER_DETAIL_CODE,ORDER_NUMBER,SHIP_DATE,PRODUCT_NUMBER,PROMOTION_CODE,QUANTITY,UNIT_COST,UNIT_PRICE,UNIT_SALE_PRICE
8039086,812524,2013-04-16 00:00:00.0,148110,0,181,24.99,42.75,42.75
8039087,832096,2010-11-16 00:00:00.0,142110,0,22,88.63,154.00,154.00
8039088,831850,2010-03-17 00:00:00.0,132160,0,3,39.12,80.00,80.00
8039089,802458,2010-05-27 00:00:00.0,135110,0,35,74.79,160.00,160.00
8039090,802199,2012-06-28 00:00:00.0,126110,0,83,25.35,45.63,45.63
8039091,829487,2010-12-24 00:00:00.0,141110,0,10,153.72,238.00,238.00
8039092,821246,2013-04-20 00:00:00.0,144200,0,20,101.74,200.00,200.00
8039093,825095,2010-07-29 00:00:00.0,147170,0,297,20.45,30.40,30.40
8039094,800278,2010-09-15 00:00:00.0,135120,0,19,96.00,160.00,160.00
8039095,834797,2012-09-27 00:00:00.0,127120,0,293,12.52,21.25,21.25
8039096,824949,2010-03-29 00:00:00.0,147110,0,57,20.14,30.70,30.70
8039097,802970,2012-03-13 00:00:00.0,144180,0,45,103.34,188.00,188.00
8039098,816558,2012-04-14 00:00:00.0,129150,0,23,140.64,240.00,240.00
8039099,830116,2012-03-13 00:00:00.0,151110,0,88,90.56,145.00,145.00
8039100,800613,2010-06-21 00:00:00.0,147160,0,221,20.28,30.40,30.40
8039101,823373,2010-11-22 00:00:00.0,126110,0,129,25.35,42.25,42.25
8039102,814151,2011-10-24 00:00:00.0,146120,0,4,60.14,104.60,104.60
8039103,812926,2013-06-25 00:00:00.0,124160,0,135,17.90,26.80,26.80
8039104,807453,2012-12-21 00:00:00.0,149130,0,28,34.01,62.65,62.65
8039105,809794,2012-04-25 00:00:00.0,122130,0,100,43.71,75.00,75.00
8039106,800482,2013-04-23 00:00:00.0,124180,0,138,20.11,30.50,30.50
8039107,801063,2013-07-16 00:00:00.0,149150,0,39,33.59,62.65,62.65
8039108,823599,2013-01-22 00:00:00.0,152110,0,17,232.90,358.00,358.00
8039109,823345,2011-09-27 00:00:00.0,129130,0,13,115.64,220.00,220.00
8039110,829905,2013-06-18 00:00:00.0,122140,0,121,35.91,67.50,67.50
8039111,802391,2010-10-26 00:00:00.0,147170,0,200,20.40,30.40,30.40
8039112,831889,2012-05-18 00:00:00.0,147170,0,36,20.82,30.40,30.40
8039113,806548,2012-07-24 00:00:00.0,148120,0,35,24.39,40.50,40.50
8039114,834014,2012-08-11 00:00:00.0,126140,0,21,28.41,43.85,43.85
8039115,820168,2013-05-14 00:00:00.0,136150,0,112,28.26,47.30,47.30
8039116,811885,2010-03-15 00:00:00.0,145170,0,11,144.62,260.00,260.00
8039117,833549,2012-03-13 00:00:00.0,132120,0,7,40.33,80.00,80.00
8039118,832024,2013-04-20 00:00:00.0,132140,0,42,41.28,84.00,84.00
8039119,806525,2013-04-17 00:00:00.0,128140,0,265,39.92,67.60,67.60
8039120,832719,2012-11-10 00:00:00.0,149140,0,31,33.83,62.65,62.65
8039121,805497,2011-10-17 00:00:00.0,154120,0,83,67.90,120.30,120.30
8039122,809692,2012-11-20 00:00:00.0,136140,0,117,28.26,47.30,47.30
8039123,821509,2012-08-17 00:00:00.0,126140,0,219,28.41,43.85,43.85
7007750,700428,2010-12-14 00:00:00.0,90110,0,4397,2.42,7.00,6.51
7007751,700428,2010-12-14 00:00:00.0,93110,0,1445,1.79,5.00,4.80
7007752,700428,2010-12-14 00:00:00.0,79110,0,102,92.58,134.11,124.72
7007753,700428,2010-12-14 00:00:00.0,80110,0,78,94.12,182.67,169.88
7007764,700429,2010-12-23 00:00:00.0,105110,0,45,690.00,1271.08,1182.10
7007765,700429,2010-12-23 00:00:00.0,87110,0,1077,1.83,6.01,5.77
7007766,700429,2010-12-23 00:00:00.0,21110,0,247,19.17,40.65,39.02
7007777,700430,2010-12-20 00:00:00.0,94110,0,2799,1.85,5.00,4.65
7007778,700430,2010-12-20 00:00:00.0,88110,0,579,1.88,7.00,6.79
7007779,700430,2010-12-20 00:00:00.0,89110,0,1270,2.33,7.00,6.72
7007780,700430,2010-12-20 00:00:00.0,67110,0,22,116.19,294.38,279.66
