|Craig "has" comma , |,|Tobias has , comma|,| ,, |
|Sandy|,|Crawford "has no comma |,|& , I love ,|
|John|,|Tobias|,|! &%, ''' |
|Gareth|,|Jenkins|,| Dub|
|Michael|,|Jackson|,| E.,lvi,s|
|Konway|,|"Fast"|,| S,L,o,w,|||||
|Mr.'|,|'Rogers'|,| who '', am , I |
|'Biggy|,|'Smalls'|,|  nippy |
|Snoop,  |,|Dogg|,| doa |
|Sarah|,|Underwood!!!!!|,| ++ ||yes|| ++ |
|Misko's|,|Mari &&, c ,|,|I "love" commas ,&,,|
