{
  "PACKAGE": [
    {
      "id": "DEPTEST.SP_SP",
      "up": true
    },
    {
      "id": "DEPTEST.UDF_SP",
      "up": true
    }
  ],
  "INDEX": [
    {
      "id": "DEPTEST.T1_PK",
      "up": false
    }
  ],
  "TABLE": [
    {
      "id": "DEPTEST.T1",
      "up": false
    }
  ],
  "STOREDPROC": [
    {
      "id": "DEPTEST.SP_SP",
      "up": true
    }
  ],
  "UDF": [
    {
      "id": "DEPTEST.UDF_SP",
      "SPECIFICNAME":"UDF_SP",
      "up": true
    }
  ]
}