{
  "PACKAGE": [
    {
      "id": "DEPTEST.TRIGGER_UDF_T_T",
      "up": true
    }
  ],
  "TABLE": [
    {
      "id": "DEPTEST.T1",
      "up": false
    }
  ],
  "DATABASE": [
    {
      "id": "DEP",
      "up": false
    }
  ],
  "CONSTRAINT": [
    {
      "id": "DEPTEST.T2_T1_FK",
      "TBNAME":"T2",
      "up": true
    }
  ],
  "TRIGGER": [
    {
      "id": "DEPTEST.TRIGGER_UDF_T_T",
      "up": true
    }
  ],
  "TABLESPACE": [
    {
      "id":"DEP.TBLSP1",
      "up": false
    }
  ]
}