{
	"display":"WIZARD",
	"dbProfileName":"MySample",
	"dbMode":"MULTIDB",
	"notify_id":"TAManager_Notify_adminta.common.TAManager_0",
	"jobType":"CLP",
	"connected":"true",
	"media":"XBSA",
	"throttlePriority":"50",
	"quiesce":"true",
	"backupLocations":"/home/db2inst1",
	"sessions":"4",
	"options":"options-string",
	"sessionsLibrary":"1",
	"parallel":"1",
	"buffers":"1",
	"sizeBuffer":"8",
	"optimize":"false",
	"backupType":"FULL",
	"availability":"OFFLINE",
	"isCompress":"false",
	"isThrottle":"false",
	"isIncludeLogs":"false",
	"autotune":"true",
	"isEncrypt":"false",
	"isExcludeEncrLib":"false",
	"declaredClass":"adminluw.backup.BackupManager",
	"TYPE_CHANGED":"changed",
	"TYPE_VALIDATED":"validated",
	"TYPE_ENTERED":"entered",
	"multiplePaths":"false"
}