{
	"data": {
			"preference": {
				"quoted": "Yes"
			},
			"changedObj": {
				"table": {
					"T1": {
						"SCHEMA": "DB2ADMIN",
						"opr": "ALTER",
						"column": {
							"COL1": {
								"opr": "ADD",
								"TYPENAME": {
									"value": "CHAR"
								},
								"LENGTH": {
									"value": "25"
								},
								"NULLS": {
									"value": "No"
								},
								"DEFAULT": {
									"value": "'aaaaaa'"
								}
							},
							"COL2": {
								"opr": "ADD",
								"TYPENAME": {
									"value": "INTEGER"
								},
								"NULLS": {
									"value": "Yes"
								},
								"DEFAULT": {
									"value": "32"
								}
							},
							"COL3": {
								"opr": "ADD",
								"TYPENAME": {
									"value": "CLOB"
								},
								"LENGTH": {
									"value": "1024"
								},
								"INLINE_LENGTH": {
									"value": "68"
								}
							},
							"COL4": {
								"opr": "ADD",
								"TYPENAME": {
									"value": "DECIMAL"
								},
								"LENGTH": {
									"value": "6"
								},
								"SCALE": {
									"value": "3"
								},
								"NULLS": {
									"value": "No"
								},
								"DEFAULT": {
									"value": "12"
								}
							}
						}
					}
				}
			}
		}
}