{
	"data": {
		"preference": {
			"quoted": "Yes"
		},
		"changedObj": [{
			"type": "table",
			"definition": {
				"TABNAME": "ACT",
				"SCHEMA": "DB2INST1",
				"opr": "ALTER",
				"column": {
					
				},
				"constraint": {
					"PK_ACT": {
						"opr": "DROP",
						"CONSTNAME": "PK_ACT",
						"TYPE": {
							"value": "Primary Key"
						}
					},
					"NEW_CONSTRAINT1": {
						"opr": "ADD",
						"CONSTNAME": {
							"value": "NEW_CONSTRAINT1"
						},
						"ENFORCED": {
							"value": "No"
						},
						"ICON": {
							"value": "/adm/ui/icons/constraint.gif"
						},
						"STEREOTYPE": {
							"value": "Constraint"
						},
						"TABNAME": {
							"value": "ACT"
						},
						"TABSCHEMA": {
							"value": "DB2INST1"
						},
						"TYPE": {
							"value": "Unique"
						},
						"MEMBER": {
							"value": "ACTKWD"
						},
						"__wtiRowId__": {
							"value": 3
						}
					}
				}
			}
		}]
	}
}