{
	"data": {
		"preference": {
			"quoted": "Yes"
		},
		"changedObj": [{
			"type": "table",
			"definition": {
				"TABNAME": "TABLE4INDEX",
				"SCHEMA": "DB2INST1",
				"opr": "ALTER"
			}
		},
		{
			"type": "index",
			"definition": {
				"INDNAME": "NEW_INDEX1",
				"TABNAME": "TABLE4INDEX",
				"INDSCHEMA": "DB2INST1",
				"TABSCHEMA": "DB2INST1",
				"opr": "ADD",
				"MEMBER":{"value":"FIELD1 ASC"}
			}
		},
		{
			"type": "index",
			"definition": {
				"INDNAME": {
					"oldValue": "NEW_INDEX1",
					"value": "PK_CUSTOMER1"
				},
				"TABNAME": "TABLE4INDEX",
				"INDSCHEMA": "DB2INST1",
				"TABSCHEMA": "DB2INST1",
				"opr": "ALTER"
			}
		}
		]
	}
}