{
	"data": {
		"preference": {
			"quoted": "Yes"
		},
		"changedObj": {
			"table": {
				"T1": {
					"SCHEMA": "DB2ADMIN",
					"opr": "ALTER",
					"column": {
						"COL1": {
							"opr": "ALTER",
							"TYPENAME": {
								"oldValue": "SMALLINT",
								"value": "INTEGER"
							}
						}
					}
				},
				"A1": {
					"SCHEMA": "DB2ADMIN",
					"opr": "ALTER",
					"column": {
						"COL1": {
							"opr": "ALTER",
							"TYPENAME": {
								"oldValue": "SMALLINT",
								"value": "CHAR"
							},
							"LENGTH": {
								"value": "30"
							}
						},
						"COL2": {
							"opr": "ALTER",
							"TYPENAME": {
								"oldValue": "CHAR",
								"value": "CHAR"
							},
							"LENGTH": {
								"oldValue": "10",
								"value": "25"
							}
						}
					}
				}
			}
		}
	}
}