{
   data:{
      "preference":{"quoted":"Yes"},
      "changedObj":[{
         "type":"tablespace",
         "definition":{
         "TBSPACE":{"oldValue":"NEWTBS","value":"TBSPBR"},
         "opr":"ADD",
         "DATABASE":{"value":"DSNDB04 "},
         "GBPCACHE":{"oldValue":"CHANGED","value":"ALL"},
         "PARTITIONS":{"NUMPARTS":5,"MAXPARTITIONS":null,
         	"PartitionSet":{
            	"1":{"opr":"ADD","PARTITION_NUMBER":{"value":"1"},
            					 "STOGROUPORVCAT":{"value":"STOGROUP,SYSDEFLT"},
            					 "PQTY":{"value":"3"},
            					 "SQTY":{"value":"6"},
            					 "ERASE":{"value":"Yes"},
            					 "GBPCACHE":{"value":"CHANGED"},
            					 "COMPRESS":{"value":"No"},
            					 "PCTFREE":{"value":"10"},
            					 "FREEPAGE":{"value":"0"},
            					 "TRACKMOD":{"value":"Yes"},
            					 "__wtiRowId__":{"value":1}},
            	"2":{"opr":"ADD","PARTITION_NUMBER":{"value":"2"},
            					 "STOGROUPORVCAT":{"value":"None"},
            					 "PQTY":{"value":"-1"},
            					 "SQTY":{"value":"-1"},
            					 "ERASE":{"value":"No"},
            					 "GBPCACHE":{"value":"CHANGED"},
            					 "COMPRESS":{"value":"No"},
            					 "PCTFREE":{"value":"5"},
            					 "FREEPAGE":{"value":"0"},
            					 "TRACKMOD":{"value":"Yes"},
            					 "__wtiRowId__":{"value":2}},
           	 	"3":{"opr":"ADD","PARTITION_NUMBER":{"value":"3"},
           	 					 "STOGROUPORVCAT":{"value":"STOGROUP,DSN8GB10"},
           	 					 "PQTY":{"value":"-1"},
           	 					 "SQTY":{"value":"-1"},
           	 					 "ERASE":{"value":"No"},
           	 					 "GBPCACHE":{"value":"CHANGED"},
           	 					 "COMPRESS":{"value":"Yes"},
           	 					 "PCTFREE":{"value":"5"},
           	 					 "FREEPAGE":{"value":"0"},
           	 					 "TRACKMOD":{"value":"Yes"},
           	 					 "__wtiRowId__":{"value":3}},
            	"4":{"opr":"ADD","PARTITION_NUMBER":{"value":"4"},
            					 "STOGROUPORVCAT":{"value":"None"},
            					 "PQTY":{"value":"-1"},
            					 "SQTY":{"value":"-1"},
            					 "ERASE":{"value":"No"},
            					 "GBPCACHE":{"value":"CHANGED"},
            					 "COMPRESS":{"value":"No"},
            					 "PCTFREE":{"value":"5"},
            					 "FREEPAGE":{"value":"0"},
            					 "TRACKMOD":{"value":"Yes"},
            					 "__wtiRowId__":{"value":4}},
            	"5":{"opr":"ADD","PARTITION_NUMBER":{"value":"5"},
            	 				 "STOGROUPORVCAT":{"value":"VCAT,DSNC000"},
            	 				 "PQTY":{"value":"-1"},
            	 				 "SQTY":{"value":"-1"},
            	 				 "ERASE":{"value":"No"},
            	 				 "GBPCACHE":{"value":"CHANGED"},
            	 				 "COMPRESS":{"value":"No"},
            	 				 "PCTFREE":{"value":"5"},
            	 				 "FREEPAGE":{"value":"0"},
            	 				 "TRACKMOD":{"value":"No"},
            	 				 "__wtiRowId__":{"value":5}
              }
         	}
         }
        }
     }]
   }
}