{
  "display": "WIZARD",
  "dbMode": "MULTIDB",
  "jobType": "JDBC",
  "data":{
  "preference": {
    "quoted": "Yes"
  },
  "changedObj": [
    {
      "type": "nickname",
      "definition": {
        "TABNAME": "NICKNAME",
        "TABSCHEMA": "DB2INST1",
        "SERVERNAME": "SERVER_DRDA",
        "REMOTE_SCHEMA": {
          "value": "db2inst1"
        },
        "REMOTE_TABLE": {
          "value": "TABLE1"
        },
        "opr": "ADD"
      }
    }
  ]
},
  "declaredClass": "adminalterluw.alter.nickname.CreateManager",
  "TYPE_CHANGED": "changed",
  "TYPE_VALIDATED": "validated",
  "TYPE_ENTERED": "entered",
  "multiplePaths": false
}