{
	"data": {
		"preference":{
			"quoted":"Yes"},
		"changedObj":[{
		"type":"alias",
		"definition":{
			"ALIASNAME":{
				"oldValue":"NEW_ALIAS",
				"value":"ALIASTEST"},
			"ALIASSCHEMA":{
				"oldValue":"DB2INST1",
				"value":"SCHEMA4ALIAS"},
		"opr":"ADD",
		"TABNAME":{
			"value":"TABLE4ALIAS"},
			"TABSCHEMA":{
				"value":"SCHEMA4ALIAS"}
					}
			}]
		}
}