{
	"data": {
		"changedObj": {
			"table": {
				"T1": {
					"SCHEMA": "DB2ADMIN",
					"ROW_COMPRESSION": {
						"value": "ADAPTIVE"
					},
					"VALUE_COMPRESSION": {
						"value": "Yes"
					},
					"opr": "ADD",
					"column": {
						"col1": {
							"opr": "ADD",
							"TYPENAME": {
								"value": "CHAR"
							},
							"LENGTH": {
								"value": "25"
							},
							"NULLS": {
								"value": "No"
							},
							"DEFAULT": {
								"value": "'aaaaaa'"
							}
						},
						"col2": {
							"opr": "ADD",
							"TYPENAME": {
								"value": "INTEGER"
							},
							"NULLS": {
								"value": "No"
							}
						},
						"col3": {
							"opr": "ADD",
							"TYPENAME": {
								"value": "CLOB"
							},
							"LENGTH": {
								"value": "1024"
							},
							"INLINE_LENGTH": {
								"value": "68"
							},
							"NULLS": {
								"value": "No"
							}
						}
					}
				},
				"T2": {
					"SCHEMA": "DB2ADMIN",
					"ROW_COMPRESSION": {
						"value": "STATIC"
					},
					"VALUE_COMPRESSION": {
						"value": "No"
					},
					"opr": "ADD",
					"column": {
						"col1": {
							"opr": "ADD",
							"TYPENAME": {
								"value": "CHAR"
							},
							"LENGTH": {
								"value": "25"
							},
							"NULLS": {
								"value": "No"
							},
							"DEFAULT": {
								"value": "'aaaaaa'"
							}
						},
						"col2": {
							"opr": "ADD",
							"TYPENAME": {
								"value": "INTEGER"
							},
							"NULLS": {
								"value": "No"
							}
						},
						"col3": {
							"opr": "ADD",
							"TYPENAME": {
								"value": "CLOB"
							},
							"LENGTH": {
								"value": "1024"
							},
							"INLINE_LENGTH": {
								"value": "68"
							},
							"NULLS": {
								"value": "No"
							}
						}
					}
				},
				"T3": {
					"SCHEMA": "DB2ADMIN",
					"ROW_COMPRESSION": {
						"value": "Yes"
					},
					"VALUE_COMPRESSION": {
						"value": "No"
					},
					"opr": "ADD",
					"column": {
						"col1": {
							"opr": "ADD",
							"TYPENAME": {
								"value": "CHAR"
							},
							"LENGTH": {
								"value": "25"
							},
							"NULLS": {
								"value": "No"
							},
							"DEFAULT": {
								"value": "'aaaaaa'"
							}
						},
						"col2": {
							"opr": "ADD",
							"TYPENAME": {
								"value": "INTEGER"
							},
							"NULLS": {
								"value": "No"
							}
						},
						"col3": {
							"opr": "ADD",
							"TYPENAME": {
								"value": "CLOB"
							},
							"LENGTH": {
								"value": "1024"
							},
							"INLINE_LENGTH": {
								"value": "68"
							},
							"NULLS": {
								"value": "No"
							}
						}
					}
				},
				"T4": {
					"SCHEMA": "DB2ADMIN",
					"ROW_COMPRESSION": {
						"value": "No"
					},
					"VALUE_COMPRESSION": {
						"value": "No"
					},
					"opr": "ADD",
					"column": {
						"col1": {
							"opr": "ADD",
							"TYPENAME": {
								"value": "CHAR"
							},
							"LENGTH": {
								"value": "25"
							},
							"NULLS": {
								"value": "No"
							},
							"DEFAULT": {
								"value": "'aaaaaa'"
							}
						},
						"col2": {
							"opr": "ADD",
							"TYPENAME": {
								"value": "INTEGER"
							},
							"NULLS": {
								"value": "No"
							}
						},
						"col3": {
							"opr": "ADD",
							"TYPENAME": {
								"value": "CLOB"
							},
							"LENGTH": {
								"value": "1024"
							},
							"INLINE_LENGTH": {
								"value": "68"
							},
							"NULLS": {
								"value": "No"
							}
						}
					}
				}
			}
		}
	}
}