{
  "display": "WIZARD",
  "dbMode": "MULTIDB",
  "isApplicationObject": true,
  "mode": "alter",
  "jobType": "JDBC",
  "data": {
  "preference": {
    "quoted": "Yes"
  },
  "changedObj": [
    {
      "type": "wrapper",
      "definition": {
        "WRAPNAME": "DRDA1",
        "opr": "DROP"
      }
    },
    {
      "type": "wrapper",
      "definition": {
        "WRAPNAME": "NET8",
        "opr": "DROP"
      }
    }
  ]
},
  "STEREOTYPE": "Wrapper",
  "NAME_ID": "WRAPNAME",
  "ACTION_ID": "AlterWrapper",
  "JDBC_ID": "ALTER_WRAPPER.JDBC",
  "CREATE_MODE": "create",
  "ALTER_MODE": "alter",
  "DROP_MODE": "drop",
  "TYPE_CHANGED": "changed",
  "TYPE_VALIDATED": "validated",
  "TYPE_ENTERED": "entered",
  "multiplePaths": false
}