{
  "display": "WIZARD",
  "dbMode": "MULTIDB",
  "isApplicationObject": true,
  "mode": "alter",
  "jobType": "JDBC",
  "data": {
  "preference": {
    "quoted": "Yes"
  },
  "changedObj": [
    {
      "type": "usermapping",
      "definition": {
        "AUTHID": "DB2INST1",
        "SERVERNAME": "SERVER5",
        "opr": "DROP"
      }
    },
    {
      "type": "usermapping",
      "definition": {
        "AUTHID": "DB2INST1",
        "SERVERNAME": "SERVER_ORACLE",
        "opr": "DROP"
      }
    }
  ]
},
  "STEREOTYPE": "UserMapping",
  "NAME_ID": "AUTHID",
  "ACTION_ID": "AlterUserMapping",
  "JDBC_ID": "ALTER_USERMAPPING.JDBC",
  "CREATE_MODE": "create",
  "ALTER_MODE": "alter",
  "DROP_MODE": "drop",
  "TYPE_CHANGED": "changed",
  "TYPE_VALIDATED": "validated",
  "TYPE_ENTERED": "entered",
  "multiplePaths": false
}