{
	"data": {
		"preference": {
			"quoted": "Yes"
		},
		"changedObj": [
		{
			"type": "index",
			"definition": {
				"INDNAME": "NEW_INDEX1",
				"INDSCHEMA":"SCHEMA4INDEX",
				"opr": "DROP"
			}
		}]
	}
}